Radius;Pressure
0.6;0.1
0.6;0.1
0.6;0.1
0.6;0.1
0.6;0.1
0.6;0.1
0.6;0.1
0.6;0.1
0.6;0.1
0.6;0.1
0.6;0.1
0.6;0.1
0.6;0.1
0.6;0.1
0.6;0.1
0.6;0.1
0.6;0.1
0.6;0.1
0.6;0.1
0.6;0.1
0.6;0.1
0.6;0.1
0.6;0.1
0.6;0.1
0.6;0.1
0.6;0.1
0.6;0.1
0.6;0.1
0.6;0.1
0.6;0.1
0.6;0.1
0.6;0.1
0.6;0.1
0.6;0.1
0.6;0.1
0.6;0.1
0.6;0.1
0.6;0.1
0.6;0.1
0.6;0.1
0.6;0.1
0.6;0.1
0.6;0.1
0.6;0.1
0.6;0.1
0.6;0.1
0.6;0.1
0.6;0.1
0.6;0.1
0.6;0.1
0.6;0.1
0.6;0.1
0.6;0.1
0.6;0.1
0.6;0.1
0.6;0.1
0.6;0.1
0.6;0.1
0.6;0.1
0.6;0.1
0.6;0.1
0.6;0.1
0.6;0.1
0.6;0.1
0.6;0.1
0.6;0.1
0.6;0.1
0.6;0.1
0.6;0.1
0.6;0.1
0.6;0.1
0.6;0.1
0.6;0.1
0.6;0.1
0.6;0.1
0.6;0.1
0.6;0.1
0.6;0.1
0.6;0.1
0.6;0.1
0.6;0.1
0.6;0.1
0.6;0.1
0.6;0.1
0.6;0.1
0.6;0.1
0.6;0.1
0.6;0.1
0.6;0.1
0.6;0.1
0.6;0.1
0.6;0.1
0.6;0.1
0.6;0.1
0.6;0.1
0.6;0.1
0.6;0.1
0.6;0.1
0.6;0.1
0.6;0.1
0.6;0.1
0.6;0.1
0.6;0.1
0.6;0.1
0.6;0.1
0.6;0.1
0.6;0.1
0.6;0.1
0.6;0.1
0.6;0.1
0.6;0.1
0.6;0.1
0.6;0.1
0.6;0.1
0.6;0.1
0.6;0.1
0.6;0.1
0.6;0.1
0.6;0.1
0.6;0.1
0.6;0.1
0.6;0.1
0.6;0.1
0.6;0.1
0.6;0.1
0.6;0.1
0.6;0.1
0.6;0.1
0.6;0.1
0.6;0.1
0.6;0.1
0.6;0.1
0.6;0.1
0.6;0.1
0.6;0.1
0.6;0.1
0.6;0.1
0.6;0.1
0.6;0.1
0.6;0.1
0.6;0.1
0.6;0.1
0.6;0.1
0.6;0.1
0.6;0.1
0.6;0.1
0.6;0.1
0.6;0.1
0.6;0.1
0.6;0.1
0.6;0.1
0.6;0.1
0.6;0.1
0.6;0.1
0.6;0.1
0.6;0.1
0.6;0.1
0.6;0.1
0.6;0.1
0.6;0.1
0.6;0.1
0.6;0.1
0.6;0.1
0.6;0.1
0.6;0.1
0.6;0.1
0.6;0.1
0.6;0.1
0.6;0.1
0.6;0.1
0.6;0.1
0.6;0.1
0.6;0.1
0.6;0.1
0.6;0.1
0.6;0.1
0.6;0.1
0.6;0.1
0.6;0.1
0.6;0.1
0.6;0.1
0.6;0.1
0.6;0.1
0.6;0.1
0.6;0.1
0.6;0.1
0.6;0.1
0.6;0.1
0.6;0.1
0.6;0.1
0.6;0.1
0.6;0.1
0.6;0.1
0.6;0.1
0.6;0.1
0.6;0.1
0.6;0.1
0.6;0.1
0.6;0.1
0.6;0.1
0.6;0.1
0.6;0.1
0.6;0.1
0.6;0.1
0.6;0.1
0.6;0.1
0.6;0.1
0.6;0.1
0.6;0.1
0.6;0.1
0.6;0.1
0.6;0.1
0.6;0.1
0.6;0.1
0.6;0.1
0.6;0.1
0.6;0.1
0.6;0.1
0.6;0.1
0.6;0.1
0.6;0.1
0.6;0.1
0.6;0.1
0.6;0.1
0.6;0.1
0.6;0.1
0.6;0.1
0.6;0.1
0.6;0.1
0.6;0.1
0.6;0.1
0.6;0.1
0.6;0.1
0.6;0.1
0.6;0.1
0.6;0.1
0.6;0.1
0.6;0.1
0.6;0.1
0.6;0.1
0.6;0.1
0.6;0.1
0.6;0.1
0.6;0.1
0.6;0.1
0.6;0.1
0.6;0.1
0.6;0.1
0.6;0.1
0.6;0.1
0.6;0.1
0.6;0.1
0.6;0.1
0.6;0.1
0.6;0.1
0.6;0.1
0.6;0.1
0.6;0.1
0.6;0.1
0.6;0.1
0.6;0.1
0.6;0.1
0.6;0.1
0.6;0.1
0.6;0.1
0.6;0.1
0.6;0.1
0.6;0.1
0.6;0.1
0.6;0.1
0.6;0.1
0.6;0.1
0.6;0.1
0.6;0.1
0.6;0.1
0.6;0.1
0.6;0.1
0.6;0.1
0.6;0.1
0.6;0.1
0.6;0.1
0.6;0.1
0.6;0.1
0.6;0.1
0.6;0.1
0.6;0.1
0.6;0.1
0.6;0.1
0.6;0.1
0.6;0.1
0.6;0.1
0.6;0.1
0.6;0.1
0.6;0.1
0.6;0.1
0.6;0.1
0.6;0.1
0.6;0.1
0.6;0.1
0.6;0.1
0.6;0.1
0.6;0.1
0.6;0.1
0.6;0.1
0.6;0.1
0.6;0.1
0.6;0.1
0.6;0.1
0.6;0.1
0.6;0.1
0.6;0.1
0.6;0.1
0.6;0.1
0.6;0.1
0.6;0.1
0.6;0.1
0.6;0.1
0.6;0.1
0.6;0.1
0.6;0.1
0.6;0.1
0.6;0.1
0.6;0.1
0.6;0.1
0.6;0.1
0.6;0.1
0.6;0.1
0.6;0.1
0.6;0.1
0.6;0.1
0.6;0.1
0.6;0.1
0.6;0.1
0.6;0.1
0.6;0.1
0.6;0.1
0.6;0.1
0.6;0.1
0.6;0.1
0.6;0.1
0.6;0.1
0.6;0.1
0.6;0.1
0.6;0.1
0.6;0.1
0.6;0.1
0.6;0.1
0.6;0.1
0.6;0.1
0.6;0.1
0.6;0.1
0.6;0.1
0.6;0.1
0.6;0.1
0.6;0.1
0.6;0.1
0.6;0.1
0.6;0.1
0.6;0.1
0.6;0.1
0.6;0.1
0.6;0.1
0.6;0.1
0.6;0.1
0.6;0.1
0.6;0.1
0.6;0.1
0.6;0.1
0.6;0.1
0.6;0.1
0.6;0.1
0.6;0.1
0.6;0.1
0.6;0.1
0.6;0.1
0.6;0.1
0.6;0.1
0.6;0.1
0.6;0.1
0.6;0.1
0.6;0.1
0.6;0.1
0.6;0.1
0.6;0.1
0.6;0.1
0.6;0.1
0.6;0.1
0.6;0.1
0.6;0.1
0.6;0.1
0.6;0.1
0.6;0.1
0.6;0.1
0.6;0.1
0.6;0.1
0.6;0.1
0.6;0.1
0.6;0.1
0.6;0.1
0.6;0.1
0.6;0.1
0.6;0.1
0.6;0.1
0.6;0.1
0.6;0.1
0.6;0.1
0.6;0.1
0.6;0.1
0.6;0.1
0.6;0.1
0.6;0.1
0.6;0.1
0.6;0.1
0.6;0.1
0.6;0.1
0.6;0.1
0.6;0.1
0.6;0.1
0.6;0.1
0.6;0.1
0.6;0.1
0.6;0.1
0.6;0.1
0.6;0.1
0.6;0.1
0.6;0.1
0.6;0.1
0.6;0.1
0.6;0.1
0.6;0.1
0.6;0.1
0.6;0.1
0.6;0.1
0.6;0.1
0.6;0.1
0.6;0.1
0.6;0.1
0.6;0.1
0.6;0.1
0.6;0.1
0.6;0.1
0.6;0.1
0.6;0.1
0.6;0.1
0.6;0.1
0.6;0.1
0.6;0.1
0.6;0.1
0.6;0.1
0.6;0.1
0.6;0.1
0.6;0.1
0.6;0.1
0.6;0.1
0.6;0.1
0.6;0.1
0.6;0.1
0.6;0.1
0.6;0.1
0.6;0.1
0.6;0.1
0.6;0.1
0.6;0.1
0.6;0.1
0.6;0.1
0.6;0.1
0.6;0.1
0.6;0.1
0.6;0.1
0.6;0.1
0.6;0.1
0.6;0.1
0.6;0.1
0.6;0.1
0.6;0.1
0.6;0.1
0.6;0.1
0.6;0.1
0.6;0.1
0.6;0.1
0.6;0.1
0.6;0.1
0.6;0.1
0.6;0.1
0.6;0.1
0.6;0.1
0.6;0.1
0.6;0.1
0.6;0.1
0.6;0.1
0.6;0.1
0.6;0.1
0.6;0.1
0.6;0.1
0.6;0.1
0.6;0.1
0.6;0.1
0.6;0.1
0.6;0.1
0.6;0.1
0.6;0.1
0.6;0.1
0.6;0.1
0.6;0.1
0.6;0.1
0.6;0.1
0.6;0.1
0.6;0.1
0.6;0.1
0.6;0.1
0.6;0.1
0.6;0.1
0.6;0.1
0.6;0.1
0.6;0.1
0.6;0.1
0.6;0.1
0.6;0.1
0.6;0.1
0.6;0.1
0.6;0.1
0.6;0.1
0.6;0.1
0.6;0.1
0.6;0.1
0.6;0.1
0.6;0.1
0.6;0.1
0.6;0.1
0.6;0.1
0.6;0.1
0.6;0.1
0.6;0.1
0.6;0.1
0.6;0.1
0.6;0.1
0.6;0.1
0.6;0.1
0.6;0.1
0.6;0.1
0.6;0.1
0.6;0.1
0.6;0.1
0.6;0.1
0.6;0.1
0.6;0.1
0.6;0.1
0.6;0.1
0.6;0.1
0.6;0.1
0.6;0.1
0.6;0.1
0.6;0.1
0.6;0.1
0.6;0.1
0.6;0.1
0.6;0.1
0.6;0.1
0.6;0.1
0.6;0.1
0.6;0.1
0.6;0.1
0.6;0.1
0.6;0.1
0.6;0.1
0.6;0.1
0.6;0.1
0.6;0.1
0.6;0.1
0.6;0.1
0.6;0.1
0.6;0.1
0.6;0.1
0.6;0.1
0.6;0.1
0.6;0.1
0.6;0.1
0.6;0.1
0.6;0.1
0.6;0.1
0.6;0.1
0.6;0.1
0.6;0.1
0.6;0.1
0.6;0.1
0.6;0.1
0.6;0.1
0.6;0.1
0.6;0.1
0.6;0.1
0.6;0.1
0.6;0.1
0.6;0.1
0.6;0.1
0.6;0.1
0.6;0.1
0.6;0.1
0.6;0.1
0.6;0.1
0.6;0.1
0.6;0.1
0.6;0.1
0.6;0.1
0.6;0.1
0.6;0.1
0.6;0.1
0.6;0.1
0.6;0.1
0.6;0.1
0.6;0.1
0.6;0.1
0.6;0.1
0.6;0.1
0.6;0.1
0.6;0.1
0.6;0.1
0.6;0.1
0.6;0.1
0.6;0.1
0.6;0.1
0.6;0.1
0.6;0.1
0.6;0.1
0.6;0.1
0.6;0.1
0.6;0.1
0.6;0.1
0.6;0.1
0.6;0.1
0.6;0.1
0.6;0.1
0.6;0.1
0.6;0.1
0.6;0.1
0.6;0.1
0.6;0.1
0.6;0.1
0.6;0.1
0.6;0.1
0.6;0.1
0.6;0.1
0.6;0.1
0.6;0.1
0.6;0.1
0.6;0.1
0.6;0.1
0.6;0.1
0.6;0.1
0.6;0.1
0.6;0.1
0.6;0.1
0.6;0.1
0.6;0.1
0.6;0.1
0.6;0.1
0.6;0.1
0.6;0.1
0.6;0.1
0.6;0.1
0.6;0.1
0.6;0.1
0.6;0.1
0.6;0.1
0.6;0.1
0.6;0.1
0.6;0.1
0.6;0.1
0.6;0.1
0.6;0.1
0.6;0.1
0.6;0.1
0.6;0.1
0.6;0.1
0.6;0.1
0.6;0.1
0.6;0.1
0.6;0.1
0.6;0.1
0.6;0.1
0.6;0.1
0.6;0.1
0.6;0.1
0.6;0.1
0.6;0.1
0.6;0.1
0.6;0.1
0.6;0.1
0.6;0.1
0.6;0.1
0.6;0.1
0.6;0.1
0.6;0.1
0.6;0.1
0.6;0.1
0.6;0.1
0.6;0.1
0.6;0.1
0.6;0.1
0.6;0.1
0.6;0.1
0.6;0.1
0.6;0.1
0.6;0.1
0.6;0.1
0.6;0.1
0.6;0.1
0.6;0.1
0.6;0.1
0.6;0.1
0.6;0.1
0.6;0.1
0.6;0.1
0.6;0.1
0.6;0.1
0.6;0.1
0.6;0.1
0.6;0.1
0.6;0.1
0.6;0.1
0.6;0.1
0.6;0.1
0.6;0.1
0.6;0.1
0.6;0.1
0.6;0.1
0.6;0.1
0.6;0.1
0.6;0.1
0.6;0.1
0.6;0.1
0.6;0.1
0.6;0.1
0.6;0.1
0.6;0.1
0.6;0.1
0.6;0.1
0.6;0.1
0.6;0.1
0.6;0.1
0.6;0.1
0.6;0.1
0.6;0.1
0.6;0.1
0.6;0.1
0.6;0.1
0.6;0.1
0.6;0.1
0.6;0.1
0.6;0.1
0.6;0.1
0.6;0.1
0.6;0.1
0.6;0.1
0.6;0.1
0.6;0.1
0.6;0.1
0.6;0.1
0.6;0.1
0.6;0.1
0.6;0.1
0.6;0.1
0.6;0.1
0.6;0.1
0.6;0.1
0.6;0.1
0.6;0.1
0.6;0.1
0.6;0.1
0.6;0.1
0.6;0.1
0.6;0.1
0.6;0.1
0.6;0.1
0.6;0.1
0.6;0.1
0.6;0.1
0.6;0.1
0.6;0.1
0.6;0.1
0.6;0.1
0.6;0.1
0.6;0.1
0.6;0.1
0.6;0.1
0.6;0.1
0.6;0.1
0.6;0.1
0.6;0.1
0.6;0.1
0.6;0.1
0.6;0.1
0.6;0.1
0.6;0.1
0.6;0.1
0.6;0.1
0.6;0.1
0.6;0.1
0.6;0.1
0.6;0.1
0.6;0.1
0.6;0.1
0.6;0.1
0.6;0.1
0.6;0.1
0.6;0.1
0.6;0.1
0.6;0.1
0.6;0.1
0.6;0.1
0.6;0.1
0.6;0.1
0.6;0.1
0.6;0.1
0.6;0.1
0.6;0.1
0.6;0.1
0.6;0.1
0.6;0.1
0.6;0.1
0.6;0.1
0.6;0.1
0.6;0.1
0.6;0.1
0.6;0.1
0.6;0.1
0.6;0.1
0.6;0.1
0.6;0.1
0.6;0.1
0.6;0.1
0.6;0.1
0.6;0.1
0.6;0.1
0.6;0.1
0.6;0.1
0.6;0.1
0.6;0.1
0.6;0.1
0.6;0.1
0.6;0.1
0.6;0.1
0.6;0.1
0.6;0.1
0.6;0.1
0.6;0.1
0.6;0.1
0.6;0.1
0.6;0.1
0.6;0.1
0.6;0.1
0.6;0.1
0.6;0.1
0.6;0.1
0.6;0.1
0.6;0.1
0.6;0.1
0.6;0.1
0.6;0.1
0.6;0.1
0.6;0.1
0.6;0.1
0.6;0.1
0.6;0.1
0.6;0.1
0.6;0.1
0.6;0.1
0.6;0.1
0.6;0.1
0.6;0.1
0.6;0.1
0.6;0.1
0.6;0.1
0.6;0.1
0.6;0.1
0.6;0.1
0.6;0.1
0.6;0.1
0.6;0.1
0.6;0.1
0.6;0.1
0.6;0.1
0.6;0.1
0.6;0.1
0.6;0.1
0.6;0.1
0.6;0.1
0.6;0.1
0.6;0.1
0.6;0.1
0.6;0.1
0.6;0.1
0.6;0.1
0.6;0.1
0.6;0.1
0.6;0.1
0.6;0.1
0.6;0.1
0.6;0.1
0.6;0.1
0.6;0.1
0.6;0.5
0.6;0.5
0.6;0.5
0.6;0.5
0.6;0.5
0.6;0.5
0.6;0.5
0.6;0.5
0.6;0.5
0.6;0.5
0.6;0.5
0.6;0.5
0.6;0.5
0.6;0.5
0.6;0.5
0.6;0.5
0.6;0.5
0.6;0.5
0.6;0.5
0.6;0.5
0.6;0.5
0.6;0.5
0.6;0.5
0.6;0.5
0.6;0.5
0.6;0.5
0.6;0.5
0.6;0.5
0.6;0.5
0.6;0.5
0.6;0.5
0.6;0.5
0.6;0.5
0.6;0.5
0.6;0.5
0.6;0.5
0.6;0.5
0.6;0.5
0.6;0.5
0.6;0.5
0.6;0.5
0.6;0.5
0.6;0.5
0.6;0.5
0.6;0.5
0.6;0.5
0.6;0.5
0.6;0.5
0.6;0.5
0.6;0.5
0.6;0.5
0.6;0.5
0.6;0.5
0.6;0.5
0.6;0.5
0.6;0.5
0.6;0.5
0.6;0.5
0.6;0.5
0.6;0.5
0.6;0.5
0.6;0.5
0.6;0.5
0.6;0.5
0.6;0.5
0.6;0.5
0.6;0.5
0.6;0.5
0.6;0.5
0.6;0.5
0.6;0.5
0.6;0.5
0.6;0.5
0.6;0.5
0.6;0.5
0.6;0.5
0.6;0.5
0.6;0.5
0.6;0.5
0.6;0.5
0.6;0.5
0.6;0.5
0.6;0.5
0.6;0.5
0.6;0.5
0.6;0.5
0.6;0.5
0.6;0.5
0.6;0.5
0.6;0.5
0.6;0.5
0.6;0.5
0.6;0.5
0.6;0.5
0.6;0.5
0.6;0.5
0.6;0.5
0.6;0.5
0.6;0.5
0.6;0.5
0.6;0.5
0.6;0.5
0.6;0.5
0.6;0.5
0.6;0.5
0.6;0.5
0.6;0.5
0.6;0.5
0.6;0.5
0.6;0.5
0.6;0.5
0.6;0.5
0.6;0.5
0.6;0.5
0.6;0.5
0.6;0.5
0.6;0.5
0.6;0.5
0.6;0.5
0.6;0.5
0.6;0.5
0.6;0.5
0.6;0.5
0.6;0.5
0.6;0.5
0.6;0.5
0.6;0.5
0.6;0.5
0.6;0.5
0.6;0.5
0.6;0.5
0.6;0.5
0.6;0.5
0.6;0.5
0.6;0.5
0.6;0.5
0.6;0.5
0.6;0.5
0.6;0.5
0.6;0.5
0.6;0.5
0.6;0.5
0.6;0.5
0.6;0.5
0.6;0.5
0.6;0.5
0.6;0.5
0.6;0.5
0.6;0.5
0.6;0.5
0.6;0.5
0.6;0.5
0.6;0.5
0.6;0.5
0.6;0.5
0.6;0.5
0.6;0.5
0.6;0.5
0.6;0.5
0.6;0.5
0.6;0.5
0.6;0.5
0.6;0.5
0.6;0.5
0.6;0.5
0.6;0.5
0.6;0.5
0.6;0.5
0.6;0.5
0.6;0.5
0.6;0.5
0.6;0.5
0.6;0.5
0.6;0.5
0.6;0.5
0.6;0.5
0.6;0.5
0.6;0.5
0.6;0.5
0.6;0.5
0.6;0.5
0.6;0.5
0.6;0.5
0.6;0.5
0.6;0.5
0.6;0.5
0.6;0.5
0.6;0.5
0.6;0.5
0.6;0.5
0.6;0.5
0.6;0.5
0.6;0.5
0.6;0.5
0.6;0.5
0.6;0.5
0.6;0.5
0.6;0.5
0.6;0.5
0.6;0.5
0.6;0.5
0.6;0.5
0.6;0.5
0.6;0.5
0.6;0.5
0.6;0.5
0.6;0.5
0.6;0.5
0.6;0.5
0.6;0.5
0.6;0.5
0.6;0.5
0.6;0.5
0.6;0.5
0.6;0.5
0.6;0.5
0.6;0.5
0.6;0.5
0.6;0.5
0.6;0.5
0.6;0.5
0.6;0.5
0.6;0.5
0.6;0.5
0.6;0.5
0.6;0.5
0.6;0.5
0.6;0.5
0.6;0.5
0.6;0.5
0.6;0.5
0.6;0.5
0.6;0.5
0.6;0.5
0.6;0.5
0.6;0.5
0.6;0.5
0.6;0.5
0.6;0.5
0.6;0.5
0.6;0.5
0.6;0.5
0.6;0.5
0.6;0.5
0.6;0.5
0.6;0.5
0.6;0.5
0.6;0.5
0.6;0.5
0.6;0.5
0.6;0.5
0.6;0.5
0.6;0.5
0.6;0.5
0.6;0.5
0.6;0.5
0.6;0.5
0.6;0.5
0.6;0.5
0.6;0.5
0.6;0.5
0.6;0.5
0.6;0.5
0.6;0.5
0.6;0.5
0.6;0.5
0.6;0.5
0.6;0.5
0.6;0.5
0.6;0.5
0.6;0.5
0.6;0.5
0.6;0.5
0.6;0.5
0.6;0.5
0.6;0.5
0.6;0.5
0.6;0.5
0.6;0.5
0.6;0.5
0.6;0.5
0.6;0.5
0.6;0.5
0.6;0.5
0.6;0.5
0.6;0.5
0.6;0.5
0.6;0.5
0.6;0.5
0.6;0.5
0.6;0.5
0.6;0.5
0.6;0.5
0.6;0.5
0.6;0.5
0.6;0.5
0.6;0.5
0.6;0.5
0.6;0.5
0.6;0.5
0.6;0.5
0.6;0.5
0.6;0.5
0.6;0.5
0.6;0.5
0.6;0.5
0.6;0.5
0.6;0.5
0.6;0.5
0.6;0.5
0.6;0.5
0.6;0.5
0.6;0.5
0.6;0.5
0.6;0.5
0.6;0.5
0.6;0.5
0.6;0.5
0.6;0.5
0.6;0.5
0.6;0.5
0.6;0.5
0.6;0.5
0.6;0.5
0.6;0.5
0.6;0.5
0.6;0.5
0.6;0.5
0.6;0.5
0.6;0.5
0.6;0.5
0.6;0.5
0.6;0.5
0.6;0.5
0.6;0.5
0.6;0.5
0.6;0.5
0.6;0.5
0.6;0.5
0.6;0.5
0.6;0.5
0.6;0.5
0.6;0.5
0.6;0.5
0.6;0.5
0.6;0.5
0.6;0.5
0.6;0.5
0.6;0.5
0.6;0.5
0.6;0.5
0.6;0.5
0.6;0.5
0.6;0.5
0.6;0.5
0.6;0.5
0.6;0.5
0.6;0.5
0.6;0.5
0.6;0.5
0.6;0.5
0.6;0.5
0.6;0.5
0.6;0.5
0.6;0.5
0.6;0.5
0.6;0.5
0.6;0.5
0.6;0.5
0.6;0.5
0.6;0.5
0.6;0.5
0.6;0.5
0.6;0.5
0.6;0.5
0.6;0.5
0.6;0.5
0.6;0.5
0.6;0.5
0.6;0.5
0.6;0.5
0.6;0.5
0.6;0.5
0.6;0.5
0.6;0.5
0.6;0.5
0.6;0.5
0.6;0.5
0.6;0.5
0.6;0.5
0.6;0.5
0.6;0.5
0.6;0.5
0.6;0.5
0.6;0.5
0.6;0.5
0.6;0.5
0.6;0.5
0.6;0.5
0.6;0.5
0.6;0.5
0.6;0.5
0.6;0.5
0.6;0.5
0.6;0.5
0.6;0.5
0.6;0.5
0.6;0.5
0.6;0.5
0.6;0.5
0.6;0.5
0.6;0.5
0.6;0.5
0.6;0.5
0.6;0.5
0.6;0.5
0.6;0.5
0.6;0.5
0.6;0.5
0.6;0.5
0.6;0.5
0.6;0.5
0.6;0.5
0.6;0.5
0.6;0.5
0.6;0.5
0.6;0.5
0.6;0.5
0.6;0.5
0.6;0.5
0.6;0.5
0.6;0.5
0.6;0.5
0.6;0.5
0.6;0.5
0.6;0.5
0.6;0.5
0.6;0.5
0.6;0.5
0.6;0.5
0.6;0.5
0.6;0.5
0.6;0.5
0.6;0.5
0.6;0.5
0.6;0.5
0.6;0.5
0.6;0.5
0.6;0.5
0.6;0.5
0.6;0.5
0.6;0.5
0.6;0.5
0.6;0.5
0.6;0.5
0.6;0.5
0.6;0.5
0.6;0.5
0.6;0.5
0.6;0.5
0.6;0.5
0.6;0.5
0.6;0.5
0.6;0.5
0.6;0.5
0.6;0.5
0.6;0.5
0.6;0.5
0.6;0.5
0.6;0.5
0.6;0.5
0.6;0.5
0.6;0.5
0.6;0.5
0.6;0.5
0.6;0.5
0.6;0.5
0.6;0.5
0.6;0.5
0.6;0.5
0.6;0.5
0.6;0.5
0.6;0.5
0.6;0.5
0.6;0.5
0.6;0.5
0.6;0.5
0.6;0.5
0.6;0.5
0.6;0.5
0.6;0.5
0.6;0.5
0.6;0.5
0.6;0.5
0.6;0.5
0.6;0.5
0.6;0.5
0.6;0.5
0.6;0.5
0.6;0.5
0.6;0.5
0.6;0.5
0.6;0.5
0.6;0.5
0.6;0.5
0.6;0.5
0.6;0.5
0.6;0.5
0.6;0.5
0.6;0.5
0.6;0.5
0.6;0.5
0.6;0.5
0.6;0.5
0.6;0.5
0.6;0.5
0.6;0.5
0.6;0.5
0.6;0.5
0.6;0.5
0.6;0.5
0.6;0.5
0.6;0.5
0.6;0.5
0.6;0.5
0.6;0.5
0.6;0.5
0.6;0.5
0.6;0.5
0.6;0.5
0.6;0.5
0.6;0.5
0.6;0.5
0.6;0.5
0.6;0.5
0.6;0.5
0.6;0.5
0.6;0.5
0.6;0.5
0.6;0.5
0.6;0.5
0.6;0.5
0.6;0.5
0.6;0.5
0.6;0.5
0.6;0.5
0.6;0.5
0.6;0.5
0.6;0.5
0.6;0.5
0.6;0.5
0.6;0.5
0.6;0.5
0.6;0.5
0.6;0.5
0.6;0.5
0.6;0.5
0.6;0.5
0.6;0.5
0.6;0.5
0.6;0.5
0.6;0.5
0.6;0.5
0.6;0.5
0.6;0.5
0.6;0.5
0.6;0.5
0.6;0.5
0.6;0.5
0.6;0.5
0.6;0.5
0.6;0.5
0.6;0.5
0.6;0.5
0.6;0.5
0.6;0.5
0.6;0.5
0.6;0.5
0.6;0.5
0.6;0.5
0.6;0.5
0.6;0.5
0.6;0.5
0.6;0.5
0.6;0.5
0.6;0.5
0.6;0.5
0.6;0.5
0.6;0.5
0.6;0.5
0.6;0.5
0.6;0.5
0.6;0.5
0.6;0.5
0.6;0.5
0.6;0.5
0.6;0.5
0.6;0.5
0.6;0.5
0.6;0.5
0.6;0.5
0.6;0.5
0.6;0.5
0.6;0.5
0.6;0.5
0.6;0.5
0.6;0.5
0.6;0.5
0.6;0.5
0.6;0.5
0.6;0.5
0.6;0.5
0.6;0.5
0.6;0.5
0.6;0.5
0.6;0.5
0.6;0.5
0.6;0.5
0.6;0.5
0.6;0.5
0.6;0.5
0.6;0.5
0.6;0.5
0.6;0.5
0.6;0.5
0.6;0.5
0.6;0.5
0.6;0.5
0.6;0.5
0.6;0.5
0.6;0.5
0.6;0.5
0.6;0.5
0.6;0.5
0.6;0.5
0.6;0.5
0.6;0.5
0.6;0.5
0.6;0.5
0.6;0.5
0.6;0.5
0.6;0.5
0.6;0.5
0.6;0.5
0.6;0.5
0.6;0.5
0.6;0.5
0.6;0.5
0.6;0.5
0.6;0.5
0.6;0.5
0.6;0.5
0.6;0.5
0.6;0.5
0.6;0.5
0.6;0.5
0.6;0.5
0.6;0.5
0.6;0.5
0.6;0.5
0.6;0.5
0.6;0.5
0.6;0.5
0.6;0.5
0.6;0.5
0.6;0.5
0.6;0.5
0.6;0.5
0.6;0.5
0.6;0.5
0.6;0.5
0.6;0.5
0.6;0.5
0.6;0.5
0.6;0.5
0.6;0.5
0.6;0.5
0.6;0.5
0.6;0.5
0.6;0.5
0.6;0.5
0.6;0.5
0.6;0.5
0.6;0.5
0.6;0.5
0.6;0.5
0.6;0.5
0.6;0.5
0.6;0.5
0.6;0.5
0.6;0.5
0.6;0.5
0.6;0.5
0.6;0.5
0.6;0.5
0.6;0.5
0.6;0.5
0.6;0.5
0.6;0.5
0.6;0.5
0.6;0.5
0.6;0.5
0.6;0.5
0.6;0.5
0.6;0.5
0.6;0.5
0.6;0.5
0.6;0.5
0.6;0.5
0.6;0.5
0.6;0.5
0.6;0.5
0.6;0.5
0.6;0.5
0.6;0.5
0.6;0.5
0.6;0.5
0.6;0.5
0.6;0.5
0.6;0.5
0.6;0.5
0.6;0.5
0.6;0.5
0.6;0.5
0.6;0.5
0.6;0.5
0.6;0.5
0.6;0.5
0.6;0.5
0.6;0.5
0.6;0.5
0.6;0.5
0.6;0.5
0.6;0.5
0.6;0.5
0.6;0.5
0.6;0.5
0.6;0.5
0.6;0.5
0.6;0.5
0.6;0.5
0.6;0.5
0.6;0.5
0.6;0.5
0.6;0.5
0.6;0.5
0.6;0.5
0.6;0.5
0.6;0.5
0.6;0.5
0.6;0.5
0.6;0.5
0.6;0.5
0.6;0.5
0.6;0.5
0.6;0.5
0.6;0.5
0.6;0.5
0.6;0.5
0.6;0.5
0.6;0.5
0.6;0.5
0.6;0.5
0.6;0.5
0.6;0.5
0.6;0.5
0.6;0.5
0.6;0.5
0.6;0.5
0.6;0.5
0.6;0.5
0.6;0.5
0.6;0.5
0.6;0.5
0.6;0.5
0.6;0.5
0.6;0.5
0.6;0.5
0.6;0.5
0.6;0.5
0.6;0.5
0.6;0.5
0.6;0.5
0.6;0.5
0.6;0.5
0.6;0.5
0.6;0.5
0.6;0.5
0.6;0.5
0.6;0.5
0.6;0.5
0.6;0.5
0.6;0.5
0.6;0.5
0.6;0.5
0.6;0.5
0.6;0.5
0.6;0.5
0.6;0.5
0.6;0.5
0.6;0.5
0.6;0.5
0.6;0.5
0.6;0.5
0.6;0.5
0.6;0.5
0.6;0.5
0.6;0.5
0.6;0.5
0.6;0.5
0.6;0.5
0.6;0.5
0.6;0.5
0.6;0.5
0.6;0.5
0.6;0.5
0.6;0.5
0.6;0.5
0.6;0.5
0.6;0.5
0.6;0.5
0.6;0.5
0.6;0.5
0.6;0.5
0.6;0.5
0.6;0.5
0.6;0.5
0.6;0.5
0.6;0.5
0.6;0.5
0.6;0.5
0.6;0.5
0.6;0.5
0.6;0.5
0.6;0.5
0.6;0.5
0.6;0.5
0.6;0.5
0.6;0.5
0.6;0.5
0.6;0.5
0.6;0.5
0.6;0.5
0.6;0.5
0.6;0.5
0.6;0.5
0.6;0.5
0.6;0.5
0.6;0.5
0.6;0.5
0.6;0.5
0.6;0.5
0.6;0.5
0.6;0.5
0.6;0.5
0.6;0.5
0.6;0.5
0.6;0.5
0.6;0.5
0.6;0.5
0.6;0.5
0.6;0.5
0.6;0.5
0.6;0.5
0.6;0.5
0.6;0.5
0.6;0.5
0.6;0.5
0.6;0.5
0.6;0.5
0.6;0.5
0.6;0.5
0.6;0.5
0.6;0.5
0.6;0.5
0.6;0.5
0.6;0.5
0.6;0.5
0.6;0.5
0.6;0.5
0.6;0.5
0.6;0.5
0.6;0.5
0.6;0.5
0.6;0.5
0.6;0.5
0.6;0.5
0.6;0.5
0.6;0.5
0.6;0.5
0.6;0.5
0.6;0.5
0.6;0.5
0.6;0.5
0.6;0.5
0.6;0.5
0.6;0.5
0.6;0.5
0.6;0.5
0.6;0.5
0.6;0.9
0.6;0.9
0.6;0.9
0.6;0.9
0.6;0.9
0.6;0.9
0.6;0.9
0.6;0.9
0.6;0.9
0.6;0.9
0.6;0.9
0.6;0.9
0.6;0.9
0.6;0.9
0.6;0.9
0.6;0.9
0.6;0.9
0.6;0.9
0.6;0.9
0.6;0.9
0.6;0.9
0.6;0.9
0.6;0.9
0.6;0.9
0.6;0.9
0.6;0.9
0.6;0.9
0.6;0.9
0.6;0.9
0.6;0.9
0.6;0.9
0.6;0.9
0.6;0.9
0.6;0.9
0.6;0.9
0.6;0.9
0.6;0.9
0.6;0.9
0.6;0.9
0.6;0.9
0.6;0.9
0.6;0.9
0.6;0.9
0.6;0.9
0.6;0.9
0.6;0.9
0.6;0.9
0.6;0.9
0.6;0.9
0.6;0.9
0.6;0.9
0.6;0.9
0.6;0.9
0.6;0.9
0.6;0.9
0.6;0.9
0.6;0.9
0.6;0.9
0.6;0.9
0.6;0.9
0.6;0.9
0.6;0.9
0.6;0.9
0.6;0.9
0.6;0.9
0.6;0.9
0.6;0.9
0.6;0.9
0.6;0.9
0.6;0.9
0.6;0.9
0.6;0.9
0.6;0.9
0.6;0.9
0.6;0.9
0.6;0.9
0.6;0.9
0.6;0.9
0.6;0.9
0.6;0.9
0.6;0.9
0.6;0.9
0.6;0.9
0.6;0.9
0.6;0.9
0.6;0.9
0.6;0.9
0.6;0.9
0.6;0.9
0.6;0.9
0.6;0.9
0.6;0.9
0.6;0.9
0.6;0.9
0.6;0.9
0.6;0.9
0.6;0.9
0.6;0.9
0.6;0.9
0.6;0.9
0.6;0.9
0.6;0.9
0.6;0.9
0.6;0.9
0.6;0.9
0.6;0.9
0.6;0.9
0.6;0.9
0.6;0.9
0.6;0.9
0.6;0.9
0.6;0.9
0.6;0.9
0.6;0.9
0.6;0.9
0.6;0.9
0.6;0.9
0.6;0.9
0.6;0.9
0.6;0.9
0.6;0.9
0.6;0.9
0.6;0.9
0.6;0.9
0.6;0.9
0.6;0.9
0.6;0.9
0.6;0.9
0.6;0.9
0.6;0.9
0.6;0.9
0.6;0.9
0.6;0.9
0.6;0.9
0.6;0.9
0.6;0.9
0.6;0.9
0.6;0.9
0.6;0.9
0.6;0.9
0.6;0.9
0.6;0.9
0.6;0.9
0.6;0.9
0.6;0.9
0.6;0.9
0.6;0.9
0.6;0.9
0.6;0.9
0.6;0.9
0.6;0.9
0.6;0.9
0.6;0.9
0.6;0.9
0.6;0.9
0.6;0.9
0.6;0.9
0.6;0.9
0.6;0.9
0.6;0.9
0.6;0.9
0.6;0.9
0.6;0.9
0.6;0.9
0.6;0.9
0.6;0.9
0.6;0.9
0.6;0.9
0.6;0.9
0.6;0.9
0.6;0.9
0.6;0.9
0.6;0.9
0.6;0.9
0.6;0.9
0.6;0.9
0.6;0.9
0.6;0.9
0.6;0.9
0.6;0.9
0.6;0.9
0.6;0.9
0.6;0.9
0.6;0.9
0.6;0.9
0.6;0.9
0.6;0.9
0.6;0.9
0.6;0.9
0.6;0.9
0.6;0.9
0.6;0.9
0.6;0.9
0.6;0.9
0.6;0.9
0.6;0.9
0.6;0.9
0.6;0.9
0.6;0.9
0.6;0.9
0.6;0.9
0.6;0.9
0.6;0.9
0.6;0.9
0.6;0.9
0.6;0.9
0.6;0.9
0.6;0.9
0.6;0.9
0.6;0.9
0.6;0.9
0.6;0.9
0.6;0.9
0.6;0.9
0.6;0.9
0.6;0.9
0.6;0.9
0.6;0.9
0.6;0.9
0.6;0.9
0.6;0.9
0.6;0.9
0.6;0.9
0.6;0.9
0.6;0.9
0.6;0.9
0.6;0.9
0.6;0.9
0.6;0.9
0.6;0.9
0.6;0.9
0.6;0.9
0.6;0.9
0.6;0.9
0.6;0.9
0.6;0.9
0.6;0.9
0.6;0.9
0.6;0.9
0.6;0.9
0.6;0.9
0.6;0.9
0.6;0.9
0.6;0.9
0.6;0.9
0.6;0.9
0.6;0.9
0.6;0.9
0.6;0.9
0.6;0.9
0.6;0.9
0.6;0.9
0.6;0.9
0.6;0.9
0.6;0.9
0.6;0.9
0.6;0.9
0.6;0.9
0.6;0.9
0.6;0.9
0.6;0.9
0.6;0.9
0.6;0.9
0.6;0.9
0.6;0.9
0.6;0.9
0.6;0.9
0.6;0.9
0.6;0.9
0.6;0.9
0.6;0.9
0.6;0.9
0.6;0.9
0.6;0.9
0.6;0.9
0.6;0.9
0.6;0.9
0.6;0.9
0.6;0.9
0.6;0.9
0.6;0.9
0.6;0.9
0.6;0.9
0.6;0.9
0.6;0.9
0.6;0.9
0.6;0.9
0.6;0.9
0.6;0.9
0.6;0.9
0.6;0.9
0.6;0.9
0.6;0.9
0.6;0.9
0.6;0.9
0.6;0.9
0.6;0.9
0.6;0.9
0.6;0.9
0.6;0.9
0.6;0.9
0.6;0.9
0.6;0.9
0.6;0.9
0.6;0.9
0.6;0.9
0.6;0.9
0.6;0.9
0.6;0.9
0.6;0.9
0.6;0.9
0.6;0.9
0.6;0.9
0.6;0.9
0.6;0.9
0.6;0.9
0.6;0.9
0.6;0.9
0.6;0.9
0.6;0.9
0.6;0.9
0.6;0.9
0.6;0.9
0.6;0.9
0.6;0.9
0.6;0.9
0.6;0.9
0.6;0.9
0.6;0.9
0.6;0.9
0.6;0.9
0.6;0.9
0.6;0.9
0.6;0.9
0.6;0.9
0.6;0.9
0.6;0.9
0.6;0.9
0.6;0.9
0.6;0.9
0.6;0.9
0.6;0.9
0.6;0.9
0.6;0.9
0.6;0.9
0.6;0.9
0.6;0.9
0.6;0.9
0.6;0.9
0.6;0.9
0.6;0.9
0.6;0.9
0.6;0.9
0.6;0.9
0.6;0.9
0.6;0.9
0.6;0.9
0.6;0.9
0.6;0.9
0.6;0.9
0.6;0.9
0.6;0.9
0.6;0.9
0.6;0.9
0.6;0.9
0.6;0.9
0.6;0.9
0.6;0.9
0.6;0.9
0.6;0.9
0.6;0.9
0.6;0.9
0.6;0.9
0.6;0.9
0.6;0.9
0.6;0.9
0.6;0.9
0.6;0.9
0.6;0.9
0.6;0.9
0.6;0.9
0.6;0.9
0.6;0.9
0.6;0.9
0.6;0.9
0.6;0.9
0.6;0.9
0.6;0.9
0.6;0.9
0.6;0.9
0.6;0.9
0.6;0.9
0.6;0.9
0.6;0.9
0.6;0.9
0.6;0.9
0.6;0.9
0.6;0.9
0.6;0.9
0.6;0.9
0.6;0.9
0.6;0.9
0.6;0.9
0.6;0.9
0.6;0.9
0.6;0.9
0.6;0.9
0.6;0.9
0.6;0.9
0.6;0.9
0.6;0.9
0.6;0.9
0.6;0.9
0.6;0.9
0.6;0.9
0.6;0.9
0.6;0.9
0.6;0.9
0.6;0.9
0.6;0.9
0.6;0.9
0.6;0.9
0.6;0.9
0.6;0.9
0.6;0.9
0.6;0.9
0.6;0.9
0.6;0.9
0.6;0.9
0.6;0.9
0.6;0.9
0.6;0.9
0.6;0.9
0.6;0.9
0.6;0.9
0.6;0.9
0.6;0.9
0.6;0.9
0.6;0.9
0.6;0.9
0.6;0.9
0.6;0.9
0.6;0.9
0.6;0.9
0.6;0.9
0.6;0.9
0.6;0.9
0.6;0.9
0.6;0.9
0.6;0.9
0.6;0.9
0.6;0.9
0.6;0.9
0.6;0.9
0.6;0.9
0.6;0.9
0.6;0.9
0.6;0.9
0.6;0.9
0.6;0.9
0.6;0.9
0.6;0.9
0.6;0.9
0.6;0.9
0.6;0.9
0.6;0.9
0.6;0.9
0.6;0.9
0.6;0.9
0.6;0.9
0.6;0.9
0.6;0.9
0.6;0.9
0.6;0.9
0.6;0.9
0.6;0.9
0.6;0.9
0.6;0.9
0.6;0.9
0.6;0.9
0.6;0.9
0.6;0.9
0.6;0.9
0.6;0.9
0.6;0.9
0.6;0.9
0.6;0.9
0.6;0.9
0.6;0.9
0.6;0.9
0.6;0.9
0.6;0.9
0.6;0.9
0.6;0.9
0.6;0.9
0.6;0.9
0.6;0.9
0.6;0.9
0.6;0.9
0.6;0.9
0.6;0.9
0.6;0.9
0.6;0.9
0.6;0.9
0.6;0.9
0.6;0.9
0.6;0.9
0.6;0.9
0.6;0.9
0.6;0.9
0.6;0.9
0.6;0.9
0.6;0.9
0.6;0.9
0.6;0.9
0.6;0.9
0.6;0.9
0.6;0.9
0.6;0.9
0.6;0.9
0.6;0.9
0.6;0.9
0.6;0.9
0.6;0.9
0.6;0.9
0.6;0.9
0.6;0.9
0.6;0.9
0.6;0.9
0.6;0.9
0.6;0.9
0.6;0.9
0.6;0.9
0.6;0.9
0.6;0.9
0.6;0.9
0.6;0.9
0.6;0.9
0.6;0.9
0.6;0.9
0.6;0.9
0.6;0.9
0.6;0.9
0.6;0.9
0.6;0.9
0.6;0.9
0.6;0.9
0.6;0.9
0.6;0.9
0.6;0.9
0.6;0.9
0.6;0.9
0.6;0.9
0.6;0.9
0.6;0.9
0.6;0.9
0.6;0.9
0.6;0.9
0.6;0.9
0.6;0.9
0.6;0.9
0.6;0.9
0.6;0.9
0.6;0.9
0.6;0.9
0.6;0.9
0.6;0.9
0.6;0.9
0.6;0.9
0.6;0.9
0.6;0.9
0.6;0.9
0.6;0.9
0.6;0.9
0.6;0.9
0.6;0.9
0.6;0.9
0.6;0.9
0.6;0.9
0.6;0.9
0.6;0.9
0.6;0.9
0.6;0.9
0.6;0.9
0.6;0.9
0.6;0.9
0.6;0.9
0.6;0.9
0.6;0.9
0.6;0.9
0.6;0.9
0.6;0.9
0.6;0.9
0.6;0.9
0.6;0.9
0.6;0.9
0.6;0.9
0.6;0.9
0.6;0.9
0.6;0.9
0.6;0.9
0.6;0.9
0.6;0.9
0.6;0.9
0.6;0.9
0.6;0.9
0.6;0.9
0.6;0.9
0.6;0.9
0.6;0.9
0.6;0.9
0.6;0.9
0.6;0.9
0.6;0.9
0.6;0.9
0.6;0.9
0.6;0.9
0.6;0.9
0.6;0.9
0.6;0.9
0.6;0.9
0.6;0.9
0.6;0.9
0.6;0.9
0.6;0.9
0.6;0.9
0.6;0.9
0.6;0.9
0.6;0.9
0.6;0.9
0.6;0.9
0.6;0.9
0.6;0.9
0.6;0.9
0.6;0.9
0.6;0.9
0.6;0.9
0.6;0.9
0.6;0.9
0.6;0.9
0.6;0.9
0.6;0.9
0.6;0.9
0.6;0.9
0.6;0.9
0.6;0.9
0.6;0.9
0.6;0.9
0.6;0.9
0.6;0.9
0.6;0.9
0.6;0.9
0.6;0.9
0.6;0.9
0.6;0.9
0.6;0.9
0.6;0.9
0.6;0.9
0.6;0.9
0.6;0.9
0.6;0.9
0.6;0.9
0.6;0.9
0.6;0.9
0.6;0.9
0.6;0.9
0.6;0.9
0.6;0.9
0.6;0.9
0.6;0.9
0.6;0.9
0.6;0.9
0.6;0.9
0.6;0.9
0.6;0.9
0.6;0.9
0.6;0.9
0.6;0.9
0.6;0.9
0.6;0.9
0.6;0.9
0.6;0.9
0.6;0.9
0.6;0.9
0.6;0.9
0.6;0.9
0.6;0.9
0.6;0.9
0.6;0.9
0.6;0.9
0.6;0.9
0.6;0.9
0.6;0.9
0.6;0.9
0.6;0.9
0.6;0.9
0.6;0.9
0.6;0.9
0.6;0.9
0.6;0.9
0.6;0.9
0.6;0.9
0.6;0.9
0.6;0.9
0.6;0.9
0.6;0.9
0.6;0.9
0.6;0.9
0.6;0.9
0.6;0.9
0.6;0.9
0.6;0.9
0.6;0.9
0.6;0.9
0.6;0.9
0.6;0.9
0.6;0.9
0.6;0.9
0.6;0.9
0.6;0.9
0.6;0.9
0.6;0.9
0.6;0.9
0.6;0.9
0.6;0.9
0.6;0.9
0.6;0.9
0.6;0.9
0.6;0.9
0.6;0.9
0.6;0.9
0.6;0.9
0.6;0.9
0.6;0.9
0.6;0.9
0.6;0.9
0.6;0.9
0.6;0.9
0.6;0.9
0.6;0.9
0.6;0.9
0.6;0.9
0.6;0.9
0.6;0.9
0.6;0.9
0.6;0.9
0.6;0.9
0.6;0.9
0.6;0.9
0.6;0.9
0.6;0.9
0.6;0.9
0.6;0.9
0.6;0.9
0.6;0.9
0.6;0.9
0.6;0.9
0.6;0.9
0.6;0.9
0.6;0.9
0.6;0.9
0.6;0.9
0.6;0.9
0.6;0.9
0.6;0.9
0.6;0.9
0.6;0.9
0.6;0.9
0.6;0.9
0.6;0.9
0.6;0.9
0.6;0.9
0.6;0.9
0.6;0.9
0.6;0.9
0.6;0.9
0.6;0.9
0.6;0.9
0.6;0.9
0.6;0.9
0.6;0.9
0.6;0.9
0.6;0.9
0.6;0.9
0.6;0.9
0.6;0.9
0.6;0.9
0.6;0.9
0.6;0.9
0.6;0.9
0.6;0.9
0.6;0.9
0.6;0.9
0.6;0.9
0.6;0.9
0.6;0.9
0.6;0.9
0.6;0.9
0.6;0.9
0.6;0.9
0.6;0.9
0.6;0.9
0.6;0.9
0.6;0.9
0.6;0.9
0.6;0.9
0.6;0.9
0.6;0.9
0.6;0.9
0.6;0.9
0.6;0.9
0.6;0.9
0.6;0.9
0.6;0.9
0.6;0.9
0.6;0.9
0.6;0.9
0.6;0.9
0.6;0.9
0.6;0.9
0.6;0.9
0.6;0.9
0.6;0.9
0.6;0.9
0.6;0.9
0.6;0.9
0.6;0.9
0.6;0.9
0.6;0.9
0.6;0.9
0.6;0.9
0.6;0.9
0.6;0.9
0.6;0.9
0.6;0.9
0.6;0.9
0.6;0.9
0.6;0.9
0.6;0.9
0.6;0.9
0.6;0.9
0.6;0.9
0.6;0.9
0.6;0.9
0.6;0.9
0.6;0.9
0.6;0.9
0.6;0.9
0.6;0.9
0.6;0.9
0.6;0.9
0.6;0.9
0.6;0.9
0.6;0.9
0.6;0.9
0.6;0.9
0.6;0.9
0.6;0.9
0.6;0.9
0.6;0.9
0.6;0.9
0.6;0.9
0.6;0.9
0.6;0.9
0.6;0.9
0.6;0.9
0.6;0.9
0.6;0.9
0.6;0.9
0.6;0.9
0.6;0.9
0.6;0.9
0.6;0.9
0.6;0.9
0.6;0.9
0.6;0.9
0.6;0.9
0.6;0.9
0.6;0.9
0.6;0.9
0.6;0.9
0.6;0.9
0.6;0.9
0.6;0.9
0.6;0.9
0.6;0.9
0.6;0.9
0.6;0.9
0.6;0.9
0.6;0.9
0.6;0.9
0.6;0.9
0.6;0.9
0.6;0.9
0.6;0.9
0.6;0.9
0.6;0.9
0.6;0.9
0.6;0.9
0.6;0.9
0.6;0.1
0.6;0.1
0.6;0.1
0.6;0.1
0.6;0.1
0.6;0.1
0.6;0.1
0.6;0.1
0.6;0.1
0.6;0.1
0.6;0.1
0.6;0.1
0.6;0.1
0.6;0.1
0.6;0.1
0.6;0.1
0.6;0.1
0.6;0.1
0.6;0.1
0.6;0.1
0.6;0.1
0.6;0.1
0.6;0.1
0.6;0.1
0.6;0.1
0.6;0.1
0.6;0.1
0.6;0.1
0.6;0.1
0.6;0.1
0.6;0.1
0.6;0.1
0.6;0.1
0.6;0.1
0.6;0.1
0.6;0.1
0.6;0.1
0.6;0.1
0.6;0.1
0.6;0.1
0.6;0.1
0.6;0.1
0.6;0.1
0.6;0.1
0.6;0.1
0.6;0.1
0.6;0.1
0.6;0.1
0.6;0.1
0.6;0.1
0.6;0.1
0.6;0.1
0.6;0.1
0.6;0.1
0.6;0.1
0.6;0.1
0.6;0.1
0.6;0.1
0.6;0.1
0.6;0.1
0.6;0.1
0.6;0.1
0.6;0.1
0.6;0.1
0.6;0.1
0.6;0.1
0.6;0.1
0.6;0.1
0.6;0.1
0.6;0.1
0.6;0.1
0.6;0.1
0.6;0.1
0.6;0.1
0.6;0.1
0.6;0.1
0.6;0.1
0.6;0.1
0.6;0.1
0.6;0.1
0.6;0.1
0.6;0.1
0.6;0.1
0.6;0.1
0.6;0.1
0.6;0.1
0.6;0.1
0.6;0.1
0.6;0.1
0.6;0.1
0.6;0.1
0.6;0.1
0.6;0.1
0.6;0.1
0.6;0.1
0.6;0.1
0.6;0.1
0.6;0.1
0.6;0.1
0.6;0.1
0.6;0.1
0.6;0.1
0.6;0.1
0.6;0.1
0.6;0.1
0.6;0.1
0.6;0.1
0.6;0.1
0.6;0.1
0.6;0.1
0.6;0.1
0.6;0.1
0.6;0.1
0.6;0.1
0.6;0.1
0.6;0.1
0.6;0.1
0.6;0.1
0.6;0.1
0.6;0.1
0.6;0.1
0.6;0.1
0.6;0.1
0.6;0.1
0.6;0.1
0.6;0.1
0.6;0.1
0.6;0.1
0.6;0.1
0.6;0.1
0.6;0.1
0.6;0.1
0.6;0.1
0.6;0.1
0.6;0.1
0.6;0.1
0.6;0.1
0.6;0.1
0.6;0.1
0.6;0.1
0.6;0.1
0.6;0.1
0.6;0.1
0.6;0.1
0.6;0.1
0.6;0.1
0.6;0.1
0.6;0.1
0.6;0.1
0.6;0.1
0.6;0.1
0.6;0.1
0.6;0.1
0.6;0.1
0.6;0.1
0.6;0.1
0.6;0.1
0.6;0.1
0.6;0.1
0.6;0.1
0.6;0.1
0.6;0.1
0.6;0.1
0.6;0.1
0.6;0.1
0.6;0.1
0.6;0.1
0.6;0.1
0.6;0.1
0.6;0.1
0.6;0.1
0.6;0.1
0.6;0.1
0.6;0.1
0.6;0.1
0.6;0.1
0.6;0.1
0.6;0.1
0.6;0.1
0.6;0.1
0.6;0.1
0.6;0.1
0.6;0.1
0.6;0.1
0.6;0.1
0.6;0.1
0.6;0.1
0.6;0.1
0.6;0.1
0.6;0.1
0.6;0.1
0.6;0.1
0.6;0.1
0.6;0.1
0.6;0.1
0.6;0.1
0.6;0.1
0.6;0.1
0.6;0.1
0.6;0.1
0.6;0.1
0.6;0.1
0.6;0.1
0.6;0.1
0.6;0.1
0.6;0.1
0.6;0.1
0.6;0.1
0.6;0.1
0.6;0.1
0.6;0.1
0.6;0.1
0.6;0.1
0.6;0.1
0.6;0.1
0.6;0.1
0.6;0.1
0.6;0.1
0.6;0.1
0.6;0.1
0.6;0.1
0.6;0.1
0.6;0.1
0.6;0.1
0.6;0.1
0.6;0.1
0.6;0.1
0.6;0.1
0.6;0.1
0.6;0.1
0.6;0.1
0.6;0.1
0.6;0.1
0.6;0.1
0.6;0.1
0.6;0.1
0.6;0.1
0.6;0.1
0.6;0.1
0.6;0.1
0.6;0.1
0.6;0.1
0.6;0.1
0.6;0.1
0.6;0.1
0.6;0.1
0.6;0.1
0.6;0.1
0.6;0.1
0.6;0.1
0.6;0.1
0.6;0.1
0.6;0.1
0.6;0.1
0.6;0.1
0.6;0.1
0.6;0.1
0.6;0.1
0.6;0.1
0.6;0.1
0.6;0.1
0.6;0.1
0.6;0.1
0.6;0.1
0.6;0.1
0.6;0.1
0.6;0.1
0.6;0.1
0.6;0.1
0.6;0.1
0.6;0.1
0.6;0.1
0.6;0.1
0.6;0.1
0.6;0.1
0.6;0.1
0.6;0.1
0.6;0.1
0.6;0.1
0.6;0.1
0.6;0.1
0.6;0.1
0.6;0.1
0.6;0.1
0.6;0.1
0.6;0.1
0.6;0.1
0.6;0.1
0.6;0.1
0.6;0.1
0.6;0.1
0.6;0.1
0.6;0.1
0.6;0.1
0.6;0.1
0.6;0.1
0.6;0.1
0.6;0.1
0.6;0.1
0.6;0.1
0.6;0.1
0.6;0.1
0.6;0.1
0.6;0.1
0.6;0.1
0.6;0.1
0.6;0.1
0.6;0.1
0.6;0.1
0.6;0.1
0.6;0.1
0.6;0.1
0.6;0.1
0.6;0.1
0.6;0.1
0.6;0.1
0.6;0.1
0.6;0.1
0.6;0.1
0.6;0.1
0.6;0.1
0.6;0.1
0.6;0.1
0.6;0.1
0.6;0.1
0.6;0.1
0.6;0.1
0.6;0.1
0.6;0.1
0.6;0.1
0.6;0.1
0.6;0.1
0.6;0.1
0.6;0.1
0.6;0.1
0.6;0.1
0.6;0.1
0.6;0.1
0.6;0.1
0.6;0.1
0.6;0.1
0.6;0.1
0.6;0.1
0.6;0.1
0.6;0.1
0.6;0.1
0.6;0.1
0.6;0.1
0.6;0.1
0.6;0.1
0.6;0.1
0.6;0.1
0.6;0.1
0.6;0.1
0.6;0.1
0.6;0.1
0.6;0.1
0.6;0.1
0.6;0.1
0.6;0.1
0.6;0.1
0.6;0.1
0.6;0.1
0.6;0.1
0.6;0.1
0.6;0.1
0.6;0.1
0.6;0.1
0.6;0.1
0.6;0.1
0.6;0.1
0.6;0.1
0.6;0.1
0.6;0.1
0.6;0.1
0.6;0.1
0.6;0.1
0.6;0.1
0.6;0.1
0.6;0.1
0.6;0.1
0.6;0.1
0.6;0.1
0.6;0.1
0.6;0.1
0.6;0.1
0.6;0.1
0.6;0.1
0.6;0.1
0.6;0.1
0.6;0.1
0.6;0.1
0.6;0.1
0.6;0.1
0.6;0.1
0.6;0.1
0.6;0.1
0.6;0.1
0.6;0.1
0.6;0.1
0.6;0.1
0.6;0.1
0.6;0.1
0.6;0.1
0.6;0.1
0.6;0.1
0.6;0.1
0.6;0.1
0.6;0.1
0.6;0.1
0.6;0.1
0.6;0.1
0.6;0.1
0.6;0.1
0.6;0.1
0.6;0.1
0.6;0.1
0.6;0.1
0.6;0.1
0.6;0.1
0.6;0.1
0.6;0.1
0.6;0.1
0.6;0.1
0.6;0.1
0.6;0.1
0.6;0.1
0.6;0.1
0.6;0.1
0.6;0.1
0.6;0.1
0.6;0.1
0.6;0.1
0.6;0.1
0.6;0.1
0.6;0.1
0.6;0.1
0.6;0.1
0.6;0.1
0.6;0.1
0.6;0.1
0.6;0.1
0.6;0.1
0.6;0.1
0.6;0.1
0.6;0.1
0.6;0.1
0.6;0.1
0.6;0.1
0.6;0.1
0.6;0.1
0.6;0.1
0.6;0.1
0.6;0.1
0.6;0.1
0.6;0.1
0.6;0.1
0.6;0.1
0.6;0.1
0.6;0.1
0.6;0.1
0.6;0.1
0.6;0.1
0.6;0.1
0.6;0.1
0.6;0.1
0.6;0.1
0.6;0.1
0.6;0.1
0.6;0.1
0.6;0.1
0.6;0.1
0.6;0.1
0.6;0.1
0.6;0.1
0.6;0.1
0.6;0.1
0.6;0.1
0.6;0.1
0.6;0.1
0.6;0.1
0.6;0.1
0.6;0.1
0.6;0.1
0.6;0.1
0.6;0.1
0.6;0.1
0.6;0.1
0.6;0.1
0.6;0.1
0.6;0.1
0.6;0.1
0.6;0.1
0.6;0.1
0.6;0.1
0.6;0.1
0.6;0.1
0.6;0.1
0.6;0.1
0.6;0.1
0.6;0.1
0.6;0.1
0.6;0.1
0.6;0.1
0.6;0.1
0.6;0.1
0.6;0.1
0.6;0.1
0.6;0.1
0.6;0.1
0.6;0.1
0.6;0.1
0.6;0.1
0.6;0.1
0.6;0.1
0.6;0.1
0.6;0.1
0.6;0.1
0.6;0.1
0.6;0.1
0.6;0.1
0.6;0.1
0.6;0.1
0.6;0.1
0.6;0.1
0.6;0.1
0.6;0.1
0.6;0.1
0.6;0.1
0.6;0.1
0.6;0.1
0.6;0.1
0.6;0.1
0.6;0.1
0.6;0.1
0.6;0.1
0.6;0.1
0.6;0.1
0.6;0.1
0.6;0.1
0.6;0.1
0.6;0.1
0.6;0.1
0.6;0.1
0.6;0.1
0.6;0.1
0.6;0.1
0.6;0.1
0.6;0.1
0.6;0.1
0.6;0.1
0.6;0.1
0.6;0.1
0.6;0.1
0.6;0.1
0.6;0.1
0.6;0.1
0.6;0.1
0.6;0.1
0.6;0.1
0.6;0.1
0.6;0.1
0.6;0.1
0.6;0.1
0.6;0.1
0.6;0.1
0.6;0.1
0.6;0.1
0.6;0.1
0.6;0.1
0.6;0.1
0.6;0.1
0.6;0.1
0.6;0.1
0.6;0.1
0.6;0.1
0.6;0.1
0.6;0.1
0.6;0.1
0.6;0.1
0.6;0.1
0.6;0.1
0.6;0.1
0.6;0.1
0.6;0.1
0.6;0.1
0.6;0.1
0.6;0.1
0.6;0.1
0.6;0.1
0.6;0.1
0.6;0.1
0.6;0.1
0.6;0.1
0.6;0.1
0.6;0.1
0.6;0.1
0.6;0.1
0.6;0.1
0.6;0.1
0.6;0.1
0.6;0.1
0.6;0.1
0.6;0.1
0.6;0.1
0.6;0.1
0.6;0.1
0.6;0.1
0.6;0.1
0.6;0.1
0.6;0.1
0.6;0.1
0.6;0.1
0.6;0.1
0.6;0.1
0.6;0.1
0.6;0.1
0.6;0.1
0.6;0.1
0.6;0.1
0.6;0.1
0.6;0.1
0.6;0.1
0.6;0.1
0.6;0.1
0.6;0.1
0.6;0.1
0.6;0.1
0.6;0.1
0.6;0.1
0.6;0.1
0.6;0.1
0.6;0.1
0.6;0.1
0.6;0.1
0.6;0.1
0.6;0.1
0.6;0.1
0.6;0.1
0.6;0.1
0.6;0.1
0.6;0.1
0.6;0.1
0.6;0.1
0.6;0.1
0.6;0.1
0.6;0.1
0.6;0.1
0.6;0.1
0.6;0.1
0.6;0.1
0.6;0.1
0.6;0.1
0.6;0.1
0.6;0.1
0.6;0.1
0.6;0.1
0.6;0.1
0.6;0.1
0.6;0.1
0.6;0.1
0.6;0.1
0.6;0.1
0.6;0.1
0.6;0.1
0.6;0.1
0.6;0.1
0.6;0.1
0.6;0.1
0.6;0.1
0.6;0.1
0.6;0.1
0.6;0.1
0.6;0.1
0.6;0.1
0.6;0.1
0.6;0.1
0.6;0.1
0.6;0.1
0.6;0.1
0.6;0.1
0.6;0.1
0.6;0.1
0.6;0.1
0.6;0.1
0.6;0.1
0.6;0.1
0.6;0.1
0.6;0.1
0.6;0.1
0.6;0.1
0.6;0.1
0.6;0.1
0.6;0.1
0.6;0.1
0.6;0.1
0.6;0.1
0.6;0.1
0.6;0.1
0.6;0.1
0.6;0.1
0.6;0.1
0.6;0.1
0.6;0.1
0.6;0.1
0.6;0.1
0.6;0.1
0.6;0.1
0.6;0.1
0.6;0.1
0.6;0.1
0.6;0.1
0.6;0.1
0.6;0.1
0.6;0.1
0.6;0.1
0.6;0.1
0.6;0.1
0.6;0.1
0.6;0.1
0.6;0.1
0.6;0.1
0.6;0.1
0.6;0.1
0.6;0.1
0.6;0.1
0.6;0.1
0.6;0.1
0.6;0.1
0.6;0.1
0.6;0.1
0.6;0.1
0.6;0.1
0.6;0.1
0.6;0.1
0.6;0.1
0.6;0.1
0.6;0.1
0.6;0.1
0.6;0.1
0.6;0.1
0.6;0.1
0.6;0.1
0.6;0.1
0.6;0.1
0.6;0.1
0.6;0.1
0.6;0.1
0.6;0.1
0.6;0.1
0.6;0.1
0.6;0.1
0.6;0.1
0.6;0.1
0.6;0.1
0.6;0.1
0.6;0.1
0.6;0.1
0.6;0.1
0.6;0.1
0.6;0.1
0.6;0.1
0.6;0.1
0.6;0.1
0.6;0.1
0.6;0.1
0.6;0.1
0.6;0.1
0.6;0.1
0.6;0.1
0.6;0.1
0.6;0.1
0.6;0.1
0.6;0.1
0.6;0.1
0.6;0.1
0.6;0.1
0.6;0.1
0.6;0.1
0.6;0.1
0.6;0.1
0.6;0.1
0.6;0.1
0.6;0.1
0.6;0.1
0.6;0.1
0.6;0.1
0.6;0.1
0.6;0.1
0.6;0.1
0.6;0.1
0.6;0.1
0.6;0.1
0.6;0.1
0.6;0.1
0.6;0.1
0.6;0.1
0.6;0.1
0.6;0.1
0.6;0.1
0.6;0.1
0.6;0.1
0.6;0.1
0.6;0.1
0.6;0.1
0.6;0.1
0.6;0.1
0.6;0.1
0.6;0.1
0.6;0.1
0.6;0.1
0.6;0.1
0.6;0.1
0.6;0.1
0.6;0.1
0.6;0.1
0.6;0.1
0.6;0.1
0.6;0.1
0.6;0.1
0.6;0.1
0.6;0.1
0.6;0.1
0.6;0.1
0.6;0.1
0.6;0.1
0.6;0.1
0.6;0.1
0.6;0.1
0.6;0.1
0.6;0.1
0.6;0.1
0.6;0.1
0.6;0.1
0.6;0.1
0.6;0.1
0.6;0.1
0.6;0.1
0.6;0.1
0.6;0.1
0.6;0.1
0.6;0.1
0.6;0.1
0.6;0.1
0.6;0.1
0.6;0.1
0.6;0.1
0.6;0.1
0.6;0.1
0.6;0.1
0.6;0.1
0.6;0.1
0.6;0.1
0.6;0.1
0.6;0.1
0.6;0.1
0.6;0.1
0.6;0.1
0.6;0.1
0.6;0.1
0.6;0.1
0.6;0.1
0.6;0.1
0.6;0.1
0.6;0.1
0.6;0.1
0.6;0.1
0.6;0.1
0.6;0.1
0.6;0.1
0.6;0.1
0.6;0.1
0.6;0.1
0.6;0.1
0.6;0.1
0.6;0.1
0.6;0.1
0.6;0.1
0.6;0.1
0.6;0.1
0.6;0.1
0.6;0.1
0.6;0.1
0.6;0.1
0.6;0.1
0.6;0.1
0.6;0.1
0.6;0.1
0.6;0.1
0.6;0.1
0.6;0.1
0.6;0.1
0.6;0.1
0.6;0.1
0.6;0.1
0.6;0.1
0.6;0.1
0.6;0.1
0.6;0.1
0.6;0.1
0.6;0.5
0.6;0.5
0.6;0.5
0.6;0.5
0.6;0.5
0.6;0.5
0.6;0.5
0.6;0.5
0.6;0.5
0.6;0.5
0.6;0.5
0.6;0.5
0.6;0.5
0.6;0.5
0.6;0.5
0.6;0.5
0.6;0.5
0.6;0.5
0.6;0.5
0.6;0.5
0.6;0.5
0.6;0.5
0.6;0.5
0.6;0.5
0.6;0.5
0.6;0.5
0.6;0.5
0.6;0.5
0.6;0.5
0.6;0.5
0.6;0.5
0.6;0.5
0.6;0.5
0.6;0.5
0.6;0.5
0.6;0.5
0.6;0.5
0.6;0.5
0.6;0.5
0.6;0.5
0.6;0.5
0.6;0.5
0.6;0.5
0.6;0.5
0.6;0.5
0.6;0.5
0.6;0.5
0.6;0.5
0.6;0.5
0.6;0.5
0.6;0.5
0.6;0.5
0.6;0.5
0.6;0.5
0.6;0.5
0.6;0.5
0.6;0.5
0.6;0.5
0.6;0.5
0.6;0.5
0.6;0.5
0.6;0.5
0.6;0.5
0.6;0.5
0.6;0.5
0.6;0.5
0.6;0.5
0.6;0.5
0.6;0.5
0.6;0.5
0.6;0.5
0.6;0.5
0.6;0.5
0.6;0.5
0.6;0.5
0.6;0.5
0.6;0.5
0.6;0.5
0.6;0.5
0.6;0.5
0.6;0.5
0.6;0.5
0.6;0.5
0.6;0.5
0.6;0.5
0.6;0.5
0.6;0.5
0.6;0.5
0.6;0.5
0.6;0.5
0.6;0.5
0.6;0.5
0.6;0.5
0.6;0.5
0.6;0.5
0.6;0.5
0.6;0.5
0.6;0.5
0.6;0.5
0.6;0.5
0.6;0.5
0.6;0.5
0.6;0.5
0.6;0.5
0.6;0.5
0.6;0.5
0.6;0.5
0.6;0.5
0.6;0.5
0.6;0.5
0.6;0.5
0.6;0.5
0.6;0.5
0.6;0.5
0.6;0.5
0.6;0.5
0.6;0.5
0.6;0.5
0.6;0.5
0.6;0.5
0.6;0.5
0.6;0.5
0.6;0.5
0.6;0.5
0.6;0.5
0.6;0.5
0.6;0.5
0.6;0.5
0.6;0.5
0.6;0.5
0.6;0.5
0.6;0.5
0.6;0.5
0.6;0.5
0.6;0.5
0.6;0.5
0.6;0.5
0.6;0.5
0.6;0.5
0.6;0.5
0.6;0.5
0.6;0.5
0.6;0.5
0.6;0.5
0.6;0.5
0.6;0.5
0.6;0.5
0.6;0.5
0.6;0.5
0.6;0.5
0.6;0.5
0.6;0.5
0.6;0.5
0.6;0.5
0.6;0.5
0.6;0.5
0.6;0.5
0.6;0.5
0.6;0.5
0.6;0.5
0.6;0.5
0.6;0.5
0.6;0.5
0.6;0.5
0.6;0.5
0.6;0.5
0.6;0.5
0.6;0.5
0.6;0.5
0.6;0.5
0.6;0.5
0.6;0.5
0.6;0.5
0.6;0.5
0.6;0.5
0.6;0.5
0.6;0.5
0.6;0.5
0.6;0.5
0.6;0.5
0.6;0.5
0.6;0.5
0.6;0.5
0.6;0.5
0.6;0.5
0.6;0.5
0.6;0.5
0.6;0.5
0.6;0.5
0.6;0.5
0.6;0.5
0.6;0.5
0.6;0.5
0.6;0.5
0.6;0.5
0.6;0.5
0.6;0.5
0.6;0.5
0.6;0.5
0.6;0.5
0.6;0.5
0.6;0.5
0.6;0.5
0.6;0.5
0.6;0.5
0.6;0.5
0.6;0.5
0.6;0.5
0.6;0.5
0.6;0.5
0.6;0.5
0.6;0.5
0.6;0.5
0.6;0.5
0.6;0.5
0.6;0.5
0.6;0.5
0.6;0.5
0.6;0.5
0.6;0.5
0.6;0.5
0.6;0.5
0.6;0.5
0.6;0.5
0.6;0.5
0.6;0.5
0.6;0.5
0.6;0.5
0.6;0.5
0.6;0.5
0.6;0.5
0.6;0.5
0.6;0.5
0.6;0.5
0.6;0.5
0.6;0.5
0.6;0.5
0.6;0.5
0.6;0.5
0.6;0.5
0.6;0.5
0.6;0.5
0.6;0.5
0.6;0.5
0.6;0.5
0.6;0.5
0.6;0.5
0.6;0.5
0.6;0.5
0.6;0.5
0.6;0.5
0.6;0.5
0.6;0.5
0.6;0.5
0.6;0.5
0.6;0.5
0.6;0.5
0.6;0.5
0.6;0.5
0.6;0.5
0.6;0.5
0.6;0.5
0.6;0.5
0.6;0.5
0.6;0.5
0.6;0.5
0.6;0.5
0.6;0.5
0.6;0.5
0.6;0.5
0.6;0.5
0.6;0.5
0.6;0.5
0.6;0.5
0.6;0.5
0.6;0.5
0.6;0.5
0.6;0.5
0.6;0.5
0.6;0.5
0.6;0.5
0.6;0.5
0.6;0.5
0.6;0.5
0.6;0.5
0.6;0.5
0.6;0.5
0.6;0.5
0.6;0.5
0.6;0.5
0.6;0.5
0.6;0.5
0.6;0.5
0.6;0.5
0.6;0.5
0.6;0.5
0.6;0.5
0.6;0.5
0.6;0.5
0.6;0.5
0.6;0.5
0.6;0.5
0.6;0.5
0.6;0.5
0.6;0.5
0.6;0.5
0.6;0.5
0.6;0.5
0.6;0.5
0.6;0.5
0.6;0.5
0.6;0.5
0.6;0.5
0.6;0.5
0.6;0.5
0.6;0.5
0.6;0.5
0.6;0.5
0.6;0.5
0.6;0.5
0.6;0.5
0.6;0.5
0.6;0.5
0.6;0.5
0.6;0.5
0.6;0.5
0.6;0.5
0.6;0.5
0.6;0.5
0.6;0.5
0.6;0.5
0.6;0.5
0.6;0.5
0.6;0.5
0.6;0.5
0.6;0.5
0.6;0.5
0.6;0.5
0.6;0.5
0.6;0.5
0.6;0.5
0.6;0.5
0.6;0.5
0.6;0.5
0.6;0.5
0.6;0.5
0.6;0.5
0.6;0.5
0.6;0.5
0.6;0.5
0.6;0.5
0.6;0.5
0.6;0.5
0.6;0.5
0.6;0.5
0.6;0.5
0.6;0.5
0.6;0.5
0.6;0.5
0.6;0.5
0.6;0.5
0.6;0.5
0.6;0.5
0.6;0.5
0.6;0.5
0.6;0.5
0.6;0.5
0.6;0.5
0.6;0.5
0.6;0.5
0.6;0.5
0.6;0.5
0.6;0.5
0.6;0.5
0.6;0.5
0.6;0.5
0.6;0.5
0.6;0.5
0.6;0.5
0.6;0.5
0.6;0.5
0.6;0.5
0.6;0.5
0.6;0.5
0.6;0.5
0.6;0.5
0.6;0.5
0.6;0.5
0.6;0.5
0.6;0.5
0.6;0.5
0.6;0.5
0.6;0.5
0.6;0.5
0.6;0.5
0.6;0.5
0.6;0.5
0.6;0.5
0.6;0.5
0.6;0.5
0.6;0.5
0.6;0.5
0.6;0.5
0.6;0.5
0.6;0.5
0.6;0.5
0.6;0.5
0.6;0.5
0.6;0.5
0.6;0.5
0.6;0.5
0.6;0.5
0.6;0.5
0.6;0.5
0.6;0.5
0.6;0.5
0.6;0.5
0.6;0.5
0.6;0.5
0.6;0.5
0.6;0.5
0.6;0.5
0.6;0.5
0.6;0.5
0.6;0.5
0.6;0.5
0.6;0.5
0.6;0.5
0.6;0.5
0.6;0.5
0.6;0.5
0.6;0.5
0.6;0.5
0.6;0.5
0.6;0.5
0.6;0.5
0.6;0.5
0.6;0.5
0.6;0.5
0.6;0.5
0.6;0.5
0.6;0.5
0.6;0.5
0.6;0.5
0.6;0.5
0.6;0.5
0.6;0.5
0.6;0.5
0.6;0.5
0.6;0.5
0.6;0.5
0.6;0.5
0.6;0.5
0.6;0.5
0.6;0.5
0.6;0.5
0.6;0.5
0.6;0.5
0.6;0.5
0.6;0.5
0.6;0.5
0.6;0.5
0.6;0.5
0.6;0.5
0.6;0.5
0.6;0.5
0.6;0.5
0.6;0.5
0.6;0.5
0.6;0.5
0.6;0.5
0.6;0.5
0.6;0.5
0.6;0.5
0.6;0.5
0.6;0.5
0.6;0.5
0.6;0.5
0.6;0.5
0.6;0.5
0.6;0.5
0.6;0.5
0.6;0.5
0.6;0.5
0.6;0.5
0.6;0.5
0.6;0.5
0.6;0.5
0.6;0.5
0.6;0.5
0.6;0.5
0.6;0.5
0.6;0.5
0.6;0.5
0.6;0.5
0.6;0.5
0.6;0.5
0.6;0.5
0.6;0.5
0.6;0.5
0.6;0.5
0.6;0.5
0.6;0.5
0.6;0.5
0.6;0.5
0.6;0.5
0.6;0.5
0.6;0.5
0.6;0.5
0.6;0.5
0.6;0.5
0.6;0.5
0.6;0.5
0.6;0.5
0.6;0.5
0.6;0.5
0.6;0.5
0.6;0.5
0.6;0.5
0.6;0.5
0.6;0.5
0.6;0.5
0.6;0.5
0.6;0.5
0.6;0.5
0.6;0.5
0.6;0.5
0.6;0.5
0.6;0.5
0.6;0.5
0.6;0.5
0.6;0.5
0.6;0.5
0.6;0.5
0.6;0.5
0.6;0.5
0.6;0.5
0.6;0.5
0.6;0.5
0.6;0.5
0.6;0.5
0.6;0.5
0.6;0.5
0.6;0.5
0.6;0.5
0.6;0.5
0.6;0.5
0.6;0.5
0.6;0.5
0.6;0.5
0.6;0.5
0.6;0.5
0.6;0.5
0.6;0.5
0.6;0.5
0.6;0.5
0.6;0.5
0.6;0.5
0.6;0.5
0.6;0.5
0.6;0.5
0.6;0.5
0.6;0.5
0.6;0.5
0.6;0.5
0.6;0.5
0.6;0.5
0.6;0.5
0.6;0.5
0.6;0.5
0.6;0.5
0.6;0.5
0.6;0.5
0.6;0.5
0.6;0.5
0.6;0.5
0.6;0.5
0.6;0.5
0.6;0.5
0.6;0.5
0.6;0.5
0.6;0.5
0.6;0.5
0.6;0.5
0.6;0.5
0.6;0.5
0.6;0.5
0.6;0.5
0.6;0.5
0.6;0.5
0.6;0.5
0.6;0.5
0.6;0.5
0.6;0.5
0.6;0.5
0.6;0.5
0.6;0.5
0.6;0.5
0.6;0.5
0.6;0.5
0.6;0.5
0.6;0.5
0.6;0.5
0.6;0.5
0.6;0.5
0.6;0.5
0.6;0.5
0.6;0.5
0.6;0.5
0.6;0.5
0.6;0.5
0.6;0.5
0.6;0.5
0.6;0.5
0.6;0.5
0.6;0.5
0.6;0.5
0.6;0.5
0.6;0.5
0.6;0.5
0.6;0.5
0.6;0.5
0.6;0.5
0.6;0.5
0.6;0.5
0.6;0.5
0.6;0.5
0.6;0.5
0.6;0.5
0.6;0.5
0.6;0.5
0.6;0.5
0.6;0.5
0.6;0.5
0.6;0.5
0.6;0.5
0.6;0.5
0.6;0.5
0.6;0.5
0.6;0.5
0.6;0.5
0.6;0.5
0.6;0.5
0.6;0.5
0.6;0.5
0.6;0.5
0.6;0.5
0.6;0.5
0.6;0.5
0.6;0.5
0.6;0.5
0.6;0.5
0.6;0.5
0.6;0.5
0.6;0.5
0.6;0.5
0.6;0.5
0.6;0.5
0.6;0.5
0.6;0.5
0.6;0.5
0.6;0.5
0.6;0.5
0.6;0.5
0.6;0.5
0.6;0.5
0.6;0.5
0.6;0.5
0.6;0.5
0.6;0.5
0.6;0.5
0.6;0.5
0.6;0.5
0.6;0.5
0.6;0.5
0.6;0.5
0.6;0.5
0.6;0.5
0.6;0.5
0.6;0.5
0.6;0.5
0.6;0.5
0.6;0.5
0.6;0.5
0.6;0.5
0.6;0.5
0.6;0.5
0.6;0.5
0.6;0.5
0.6;0.5
0.6;0.5
0.6;0.5
0.6;0.5
0.6;0.5
0.6;0.5
0.6;0.5
0.6;0.5
0.6;0.5
0.6;0.5
0.6;0.5
0.6;0.5
0.6;0.5
0.6;0.5
0.6;0.5
0.6;0.5
0.6;0.5
0.6;0.5
0.6;0.5
0.6;0.5
0.6;0.5
0.6;0.5
0.6;0.5
0.6;0.5
0.6;0.5
0.6;0.5
0.6;0.5
0.6;0.5
0.6;0.5
0.6;0.5
0.6;0.5
0.6;0.5
0.6;0.5
0.6;0.5
0.6;0.5
0.6;0.5
0.6;0.5
0.6;0.5
0.6;0.5
0.6;0.5
0.6;0.5
0.6;0.5
0.6;0.5
0.6;0.5
0.6;0.5
0.6;0.5
0.6;0.5
0.6;0.5
0.6;0.5
0.6;0.5
0.6;0.5
0.6;0.5
0.6;0.5
0.6;0.5
0.6;0.5
0.6;0.5
0.6;0.5
0.6;0.5
0.6;0.5
0.6;0.5
0.6;0.5
0.6;0.5
0.6;0.5
0.6;0.5
0.6;0.5
0.6;0.5
0.6;0.5
0.6;0.5
0.6;0.5
0.6;0.5
0.6;0.5
0.6;0.5
0.6;0.5
0.6;0.5
0.6;0.5
0.6;0.5
0.6;0.5
0.6;0.5
0.6;0.5
0.6;0.5
0.6;0.5
0.6;0.5
0.6;0.5
0.6;0.5
0.6;0.5
0.6;0.5
0.6;0.5
0.6;0.5
0.6;0.5
0.6;0.5
0.6;0.5
0.6;0.5
0.6;0.5
0.6;0.5
0.6;0.5
0.6;0.5
0.6;0.5
0.6;0.5
0.6;0.5
0.6;0.5
0.6;0.5
0.6;0.5
0.6;0.5
0.6;0.5
0.6;0.5
0.6;0.5
0.6;0.5
0.6;0.5
0.6;0.5
0.6;0.5
0.6;0.5
0.6;0.5
0.6;0.5
0.6;0.5
0.6;0.5
0.6;0.5
0.6;0.5
0.6;0.5
0.6;0.5
0.6;0.5
0.6;0.5
0.6;0.5
0.6;0.5
0.6;0.5
0.6;0.5
0.6;0.5
0.6;0.5
0.6;0.5
0.6;0.5
0.6;0.5
0.6;0.5
0.6;0.5
0.6;0.5
0.6;0.5
0.6;0.5
0.6;0.5
0.6;0.5
0.6;0.5
0.6;0.5
0.6;0.5
0.6;0.5
0.6;0.5
0.6;0.5
0.6;0.5
0.6;0.5
0.6;0.5
0.6;0.5
0.6;0.5
0.6;0.5
0.6;0.5
0.6;0.5
0.6;0.5
0.6;0.5
0.6;0.5
0.6;0.5
0.6;0.5
0.6;0.5
0.6;0.5
0.6;0.5
0.6;0.5
0.6;0.5
0.6;0.5
0.6;0.5
0.6;0.5
0.6;0.5
0.6;0.5
0.6;0.5
0.6;0.5
0.6;0.5
0.6;0.5
0.6;0.5
0.6;0.5
0.6;0.5
0.6;0.5
0.6;0.5
0.6;0.5
0.6;0.5
0.6;0.5
0.6;0.5
0.6;0.5
0.6;0.5
0.6;0.5
0.6;0.5
0.6;0.5
0.6;0.5
0.6;0.5
0.6;0.5
0.6;0.5
0.6;0.5
0.6;0.5
0.6;0.5
0.6;0.5
0.6;0.5
0.6;0.5
0.6;0.5
0.6;0.5
0.6;0.5
0.6;0.5
0.6;0.5
0.6;0.5
0.6;0.5
0.6;0.5
0.6;0.5
0.6;0.5
0.6;0.5
0.6;0.5
0.6;0.5
0.6;0.5
0.6;0.5
0.6;0.5
0.6;0.5
0.6;0.9
0.6;0.9
0.6;0.9
0.6;0.9
0.6;0.9
0.6;0.9
0.6;0.9
0.6;0.9
0.6;0.9
0.6;0.9
0.6;0.9
0.6;0.9
0.6;0.9
0.6;0.9
0.6;0.9
0.6;0.9
0.6;0.9
0.6;0.9
0.6;0.9
0.6;0.9
0.6;0.9
0.6;0.9
0.6;0.9
0.6;0.9
0.6;0.9
0.6;0.9
0.6;0.9
0.6;0.9
0.6;0.9
0.6;0.9
0.6;0.9
0.6;0.9
0.6;0.9
0.6;0.9
0.6;0.9
0.6;0.9
0.6;0.9
0.6;0.9
0.6;0.9
0.6;0.9
0.6;0.9
0.6;0.9
0.6;0.9
0.6;0.9
0.6;0.9
0.6;0.9
0.6;0.9
0.6;0.9
0.6;0.9
0.6;0.9
0.6;0.9
0.6;0.9
0.6;0.9
0.6;0.9
0.6;0.9
0.6;0.9
0.6;0.9
0.6;0.9
0.6;0.9
0.6;0.9
0.6;0.9
0.6;0.9
0.6;0.9
0.6;0.9
0.6;0.9
0.6;0.9
0.6;0.9
0.6;0.9
0.6;0.9
0.6;0.9
0.6;0.9
0.6;0.9
0.6;0.9
0.6;0.9
0.6;0.9
0.6;0.9
0.6;0.9
0.6;0.9
0.6;0.9
0.6;0.9
0.6;0.9
0.6;0.9
0.6;0.9
0.6;0.9
0.6;0.9
0.6;0.9
0.6;0.9
0.6;0.9
0.6;0.9
0.6;0.9
0.6;0.9
0.6;0.9
0.6;0.9
0.6;0.9
0.6;0.9
0.6;0.9
0.6;0.9
0.6;0.9
0.6;0.9
0.6;0.9
0.6;0.9
0.6;0.9
0.6;0.9
0.6;0.9
0.6;0.9
0.6;0.9
0.6;0.9
0.6;0.9
0.6;0.9
0.6;0.9
0.6;0.9
0.6;0.9
0.6;0.9
0.6;0.9
0.6;0.9
0.6;0.9
0.6;0.9
0.6;0.9
0.6;0.9
0.6;0.9
0.6;0.9
0.6;0.9
0.6;0.9
0.6;0.9
0.6;0.9
0.6;0.9
0.6;0.9
0.6;0.9
0.6;0.9
0.6;0.9
0.6;0.9
0.6;0.9
0.6;0.9
0.6;0.9
0.6;0.9
0.6;0.9
0.6;0.9
0.6;0.9
0.6;0.9
0.6;0.9
0.6;0.9
0.6;0.9
0.6;0.9
0.6;0.9
0.6;0.9
0.6;0.9
0.6;0.9
0.6;0.9
0.6;0.9
0.6;0.9
0.6;0.9
0.6;0.9
0.6;0.9
0.6;0.9
0.6;0.9
0.6;0.9
0.6;0.9
0.6;0.9
0.6;0.9
0.6;0.9
0.6;0.9
0.6;0.9
0.6;0.9
0.6;0.9
0.6;0.9
0.6;0.9
0.6;0.9
0.6;0.9
0.6;0.9
0.6;0.9
0.6;0.9
0.6;0.9
0.6;0.9
0.6;0.9
0.6;0.9
0.6;0.9
0.6;0.9
0.6;0.9
0.6;0.9
0.6;0.9
0.6;0.9
0.6;0.9
0.6;0.9
0.6;0.9
0.6;0.9
0.6;0.9
0.6;0.9
0.6;0.9
0.6;0.9
0.6;0.9
0.6;0.9
0.6;0.9
0.6;0.9
0.6;0.9
0.6;0.9
0.6;0.9
0.6;0.9
0.6;0.9
0.6;0.9
0.6;0.9
0.6;0.9
0.6;0.9
0.6;0.9
0.6;0.9
0.6;0.9
0.6;0.9
0.6;0.9
0.6;0.9
0.6;0.9
0.6;0.9
0.6;0.9
0.6;0.9
0.6;0.9
0.6;0.9
0.6;0.9
0.6;0.9
0.6;0.9
0.6;0.9
0.6;0.9
0.6;0.9
0.6;0.9
0.6;0.9
0.6;0.9
0.6;0.9
0.6;0.9
0.6;0.9
0.6;0.9
0.6;0.9
0.6;0.9
0.6;0.9
0.6;0.9
0.6;0.9
0.6;0.9
0.6;0.9
0.6;0.9
0.6;0.9
0.6;0.9
0.6;0.9
0.6;0.9
0.6;0.9
0.6;0.9
0.6;0.9
0.6;0.9
0.6;0.9
0.6;0.9
0.6;0.9
0.6;0.9
0.6;0.9
0.6;0.9
0.6;0.9
0.6;0.9
0.6;0.9
0.6;0.9
0.6;0.9
0.6;0.9
0.6;0.9
0.6;0.9
0.6;0.9
0.6;0.9
0.6;0.9
0.6;0.9
0.6;0.9
0.6;0.9
0.6;0.9
0.6;0.9
0.6;0.9
0.6;0.9
0.6;0.9
0.6;0.9
0.6;0.9
0.6;0.9
0.6;0.9
0.6;0.9
0.6;0.9
0.6;0.9
0.6;0.9
0.6;0.9
0.6;0.9
0.6;0.9
0.6;0.9
0.6;0.9
0.6;0.9
0.6;0.9
0.6;0.9
0.6;0.9
0.6;0.9
0.6;0.9
0.6;0.9
0.6;0.9
0.6;0.9
0.6;0.9
0.6;0.9
0.6;0.9
0.6;0.9
0.6;0.9
0.6;0.9
0.6;0.9
0.6;0.9
0.6;0.9
0.6;0.9
0.6;0.9
0.6;0.9
0.6;0.9
0.6;0.9
0.6;0.9
0.6;0.9
0.6;0.9
0.6;0.9
0.6;0.9
0.6;0.9
0.6;0.9
0.6;0.9
0.6;0.9
0.6;0.9
0.6;0.9
0.6;0.9
0.6;0.9
0.6;0.9
0.6;0.9
0.6;0.9
0.6;0.9
0.6;0.9
0.6;0.9
0.6;0.9
0.6;0.9
0.6;0.9
0.6;0.9
0.6;0.9
0.6;0.9
0.6;0.9
0.6;0.9
0.6;0.9
0.6;0.9
0.6;0.9
0.6;0.9
0.6;0.9
0.6;0.9
0.6;0.9
0.6;0.9
0.6;0.9
0.6;0.9
0.6;0.9
0.6;0.9
0.6;0.9
0.6;0.9
0.6;0.9
0.6;0.9
0.6;0.9
0.6;0.9
0.6;0.9
0.6;0.9
0.6;0.9
0.6;0.9
0.6;0.9
0.6;0.9
0.6;0.9
0.6;0.9
0.6;0.9
0.6;0.9
0.6;0.9
0.6;0.9
0.6;0.9
0.6;0.9
0.6;0.9
0.6;0.9
0.6;0.9
0.6;0.9
0.6;0.9
0.6;0.9
0.6;0.9
0.6;0.9
0.6;0.9
0.6;0.9
0.6;0.9
0.6;0.9
0.6;0.9
0.6;0.9
0.6;0.9
0.6;0.9
0.6;0.9
0.6;0.9
0.6;0.9
0.6;0.9
0.6;0.9
0.6;0.9
0.6;0.9
0.6;0.9
0.6;0.9
0.6;0.9
0.6;0.9
0.6;0.9
0.6;0.9
0.6;0.9
0.6;0.9
0.6;0.9
0.6;0.9
0.6;0.9
0.6;0.9
0.6;0.9
0.6;0.9
0.6;0.9
0.6;0.9
0.6;0.9
0.6;0.9
0.6;0.9
0.6;0.9
0.6;0.9
0.6;0.9
0.6;0.9
0.6;0.9
0.6;0.9
0.6;0.9
0.6;0.9
0.6;0.9
0.6;0.9
0.6;0.9
0.6;0.9
0.6;0.9
0.6;0.9
0.6;0.9
0.6;0.9
0.6;0.9
0.6;0.9
0.6;0.9
0.6;0.9
0.6;0.9
0.6;0.9
0.6;0.9
0.6;0.9
0.6;0.9
0.6;0.9
0.6;0.9
0.6;0.9
0.6;0.9
0.6;0.9
0.6;0.9
0.6;0.9
0.6;0.9
0.6;0.9
0.6;0.9
0.6;0.9
0.6;0.9
0.6;0.9
0.6;0.9
0.6;0.9
0.6;0.9
0.6;0.9
0.6;0.9
0.6;0.9
0.6;0.9
0.6;0.9
0.6;0.9
0.6;0.9
0.6;0.9
0.6;0.9
0.6;0.9
0.6;0.9
0.6;0.9
0.6;0.9
0.6;0.9
0.6;0.9
0.6;0.9
0.6;0.9
0.6;0.9
0.6;0.9
0.6;0.9
0.6;0.9
0.6;0.9
0.6;0.9
0.6;0.9
0.6;0.9
0.6;0.9
0.6;0.9
0.6;0.9
0.6;0.9
0.6;0.9
0.6;0.9
0.6;0.9
0.6;0.9
0.6;0.9
0.6;0.9
0.6;0.9
0.6;0.9
0.6;0.9
0.6;0.9
0.6;0.9
0.6;0.9
0.6;0.9
0.6;0.9
0.6;0.9
0.6;0.9
0.6;0.9
0.6;0.9
0.6;0.9
0.6;0.9
0.6;0.9
0.6;0.9
0.6;0.9
0.6;0.9
0.6;0.9
0.6;0.9
0.6;0.9
0.6;0.9
0.6;0.9
0.6;0.9
0.6;0.9
0.6;0.9
0.6;0.9
0.6;0.9
0.6;0.9
0.6;0.9
0.6;0.9
0.6;0.9
0.6;0.9
0.6;0.9
0.6;0.9
0.6;0.9
0.6;0.9
0.6;0.9
0.6;0.9
0.6;0.9
0.6;0.9
0.6;0.9
0.6;0.9
0.6;0.9
0.6;0.9
0.6;0.9
0.6;0.9
0.6;0.9
0.6;0.9
0.6;0.9
0.6;0.9
0.6;0.9
0.6;0.9
0.6;0.9
0.6;0.9
0.6;0.9
0.6;0.9
0.6;0.9
0.6;0.9
0.6;0.9
0.6;0.9
0.6;0.9
0.6;0.9
0.6;0.9
0.6;0.9
0.6;0.9
0.6;0.9
0.6;0.9
0.6;0.9
0.6;0.9
0.6;0.9
0.6;0.9
0.6;0.9
0.6;0.9
0.6;0.9
0.6;0.9
0.6;0.9
0.6;0.9
0.6;0.9
0.6;0.9
0.6;0.9
0.6;0.9
0.6;0.9
0.6;0.9
0.6;0.9
0.6;0.9
0.6;0.9
0.6;0.9
0.6;0.9
0.6;0.9
0.6;0.9
0.6;0.9
0.6;0.9
0.6;0.9
0.6;0.9
0.6;0.9
0.6;0.9
0.6;0.9
0.6;0.9
0.6;0.9
0.6;0.9
0.6;0.9
0.6;0.9
0.6;0.9
0.6;0.9
0.6;0.9
0.6;0.9
0.6;0.9
0.6;0.9
0.6;0.9
0.6;0.9
0.6;0.9
0.6;0.9
0.6;0.9
0.6;0.9
0.6;0.9
0.6;0.9
0.6;0.9
0.6;0.9
0.6;0.9
0.6;0.9
0.6;0.9
0.6;0.9
0.6;0.9
0.6;0.9
0.6;0.9
0.6;0.9
0.6;0.9
0.6;0.9
0.6;0.9
0.6;0.9
0.6;0.9
0.6;0.9
0.6;0.9
0.6;0.9
0.6;0.9
0.6;0.9
0.6;0.9
0.6;0.9
0.6;0.9
0.6;0.9
0.6;0.9
0.6;0.9
0.6;0.9
0.6;0.9
0.6;0.9
0.6;0.9
0.6;0.9
0.6;0.9
0.6;0.9
0.6;0.9
0.6;0.9
0.6;0.9
0.6;0.9
0.6;0.9
0.6;0.9
0.6;0.9
0.6;0.9
0.6;0.9
0.6;0.9
0.6;0.9
0.6;0.9
0.6;0.9
0.6;0.9
0.6;0.9
0.6;0.9
0.6;0.9
0.6;0.9
0.6;0.9
0.6;0.9
0.6;0.9
0.6;0.9
0.6;0.9
0.6;0.9
0.6;0.9
0.6;0.9
0.6;0.9
0.6;0.9
0.6;0.9
0.6;0.9
0.6;0.9
0.6;0.9
0.6;0.9
0.6;0.9
0.6;0.9
0.6;0.9
0.6;0.9
0.6;0.9
0.6;0.9
0.6;0.9
0.6;0.9
0.6;0.9
0.6;0.9
0.6;0.9
0.6;0.9
0.6;0.9
0.6;0.9
0.6;0.9
0.6;0.9
0.6;0.9
0.6;0.9
0.6;0.9
0.6;0.9
0.6;0.9
0.6;0.9
0.6;0.9
0.6;0.9
0.6;0.9
0.6;0.9
0.6;0.9
0.6;0.9
0.6;0.9
0.6;0.9
0.6;0.9
0.6;0.9
0.6;0.9
0.6;0.9
0.6;0.9
0.6;0.9
0.6;0.9
0.6;0.9
0.6;0.9
0.6;0.9
0.6;0.9
0.6;0.9
0.6;0.9
0.6;0.9
0.6;0.9
0.6;0.9
0.6;0.9
0.6;0.9
0.6;0.9
0.6;0.9
0.6;0.9
0.6;0.9
0.6;0.9
0.6;0.9
0.6;0.9
0.6;0.9
0.6;0.9
0.6;0.9
0.6;0.9
0.6;0.9
0.6;0.9
0.6;0.9
0.6;0.9
0.6;0.9
0.6;0.9
0.6;0.9
0.6;0.9
0.6;0.9
0.6;0.9
0.6;0.9
0.6;0.9
0.6;0.9
0.6;0.9
0.6;0.9
0.6;0.9
0.6;0.9
0.6;0.9
0.6;0.9
0.6;0.9
0.6;0.9
0.6;0.9
0.6;0.9
0.6;0.9
0.6;0.9
0.6;0.9
0.6;0.9
0.6;0.9
0.6;0.9
0.6;0.9
0.6;0.9
0.6;0.9
0.6;0.9
0.6;0.9
0.6;0.9
0.6;0.9
0.6;0.9
0.6;0.9
0.6;0.9
0.6;0.9
0.6;0.9
0.6;0.9
0.6;0.9
0.6;0.9
0.6;0.9
0.6;0.9
0.6;0.9
0.6;0.9
0.6;0.9
0.6;0.9
0.6;0.9
0.6;0.9
0.6;0.9
0.6;0.9
0.6;0.9
0.6;0.9
0.6;0.9
0.6;0.9
0.6;0.9
0.6;0.9
0.6;0.9
0.6;0.9
0.6;0.9
0.6;0.9
0.6;0.9
0.6;0.9
0.6;0.9
0.6;0.9
0.6;0.9
0.6;0.9
0.6;0.9
0.6;0.9
0.6;0.9
0.6;0.9
0.6;0.9
0.6;0.9
0.6;0.9
0.6;0.9
0.6;0.9
0.6;0.9
0.6;0.9
0.6;0.9
0.6;0.9
0.6;0.9
0.6;0.9
0.6;0.9
0.6;0.9
0.6;0.9
0.6;0.9
0.6;0.9
0.6;0.9
0.6;0.9
0.6;0.9
0.6;0.9
0.6;0.9
0.6;0.9
0.6;0.9
0.6;0.9
0.6;0.9
0.6;0.9
0.6;0.9
0.6;0.9
0.6;0.9
0.6;0.9
0.6;0.9
0.6;0.9
0.6;0.9
0.6;0.9
0.6;0.9
0.6;0.9
0.6;0.9
0.6;0.9
0.6;0.9
0.6;0.9
0.6;0.9
0.6;0.9
0.6;0.9
0.6;0.9
0.6;0.9
0.6;0.9
0.6;0.9
0.6;0.9
0.6;0.9
0.6;0.9
0.6;0.9
0.6;0.9
0.6;0.9
0.6;0.9
0.6;0.9
0.6;0.9
0.6;0.9
0.6;0.9
0.6;0.9
0.6;0.9
0.6;0.9
0.6;0.9
0.6;0.9
0.6;0.9
0.6;0.9
0.6;0.9
0.6;0.9
0.6;0.9
0.6;0.9
0.6;0.9
0.6;0.9
0.6;0.9
0.6;0.9
0.6;0.9
0.6;0.9
0.6;0.9
0.6;0.9
0.6;0.9
0.6;0.9
0.6;0.9
0.6;0.9
0.6;0.9
0.6;0.9
0.6;0.9
0.6;0.9
0.6;0.9
0.6;0.9
0.6;0.9
0.6;0.9
0.6;0.9
0.6;0.9
0.6;0.9
0.6;0.9
0.6;0.9
0.6;0.9
0.6;0.9
0.6;0.9
0.6;0.9
0.6;0.9
0.6;0.9
0.6;0.9
0.6;0.9
0.6;0.9
