<class 'problems.ANNOP.ANNOP'>,2146155597968,algorithms.genetic_algorithm,0,0.1943866943866944,0.17012448132780084,50,tournament_selection,one_point_crossover,0.5,ball_mutation,None,None,0.9,0.008619757588277495
<class 'problems.ANNOP.ANNOP'>,2146155597968,algorithms.genetic_algorithm,1,0.1943866943866944,0.17012448132780084,50,tournament_selection,one_point_crossover,0.5,ball_mutation,None,None,0.9,-0.003607805826116712
<class 'problems.ANNOP.ANNOP'>,2146155597968,algorithms.genetic_algorithm,2,0.2494802494802495,0.2157676348547718,50,tournament_selection,one_point_crossover,0.5,ball_mutation,None,None,0.9,0.012098160686679096
<class 'problems.ANNOP.ANNOP'>,2146155597968,algorithms.genetic_algorithm,3,0.2494802494802495,0.2157676348547718,50,tournament_selection,one_point_crossover,0.5,ball_mutation,None,None,0.9,0.0010018407540211272
<class 'problems.ANNOP.ANNOP'>,2146155597968,algorithms.genetic_algorithm,4,0.2494802494802495,0.2157676348547718,50,tournament_selection,one_point_crossover,0.5,ball_mutation,None,None,0.9,0.0007602312234073205
<class 'problems.ANNOP.ANNOP'>,2146155597968,algorithms.genetic_algorithm,5,0.2494802494802495,0.2157676348547718,50,tournament_selection,one_point_crossover,0.5,ball_mutation,None,None,0.9,0.007430107290395477
<class 'problems.ANNOP.ANNOP'>,2146155597968,algorithms.genetic_algorithm,6,0.2494802494802495,0.2157676348547718,50,tournament_selection,one_point_crossover,0.5,ball_mutation,None,None,0.9,-0.004843730428081644
<class 'problems.ANNOP.ANNOP'>,2146155597968,algorithms.genetic_algorithm,7,0.2494802494802495,0.2157676348547718,50,tournament_selection,one_point_crossover,0.5,ball_mutation,None,None,0.9,-0.0005931471305015007
<class 'problems.ANNOP.ANNOP'>,2146155597968,algorithms.genetic_algorithm,8,0.2494802494802495,0.2157676348547718,50,tournament_selection,one_point_crossover,0.5,ball_mutation,None,None,0.9,-0.007234525369609626
<class 'problems.ANNOP.ANNOP'>,2146155597968,algorithms.genetic_algorithm,9,0.2661122661122661,0.2157676348547718,50,tournament_selection,one_point_crossover,0.5,ball_mutation,None,None,0.9,0.0024334838016165997
<class 'problems.ANNOP.ANNOP'>,2146155597968,algorithms.genetic_algorithm,10,0.2661122661122661,0.2157676348547718,50,tournament_selection,one_point_crossover,0.5,ball_mutation,None,None,0.9,0.01744694574114146
<class 'problems.ANNOP.ANNOP'>,2146155597968,algorithms.genetic_algorithm,11,0.2661122661122661,0.2157676348547718,50,tournament_selection,one_point_crossover,0.5,ball_mutation,None,None,0.9,-0.0006814578561681189
<class 'problems.ANNOP.ANNOP'>,2146155597968,algorithms.genetic_algorithm,12,0.2661122661122661,0.2157676348547718,50,tournament_selection,one_point_crossover,0.5,ball_mutation,None,None,0.9,-0.01548083099997346
<class 'problems.ANNOP.ANNOP'>,2146155597968,algorithms.genetic_algorithm,13,0.2661122661122661,0.2157676348547718,50,tournament_selection,one_point_crossover,0.5,ball_mutation,None,None,0.9,0.011323690379378366
<class 'problems.ANNOP.ANNOP'>,2146155597968,algorithms.genetic_algorithm,14,0.2661122661122661,0.2157676348547718,50,tournament_selection,one_point_crossover,0.5,ball_mutation,None,None,0.9,0.0062574492770589435
<class 'problems.ANNOP.ANNOP'>,2146155597968,algorithms.genetic_algorithm,15,0.2661122661122661,0.2157676348547718,50,tournament_selection,one_point_crossover,0.5,ball_mutation,None,None,0.9,-0.007298395853955322
<class 'problems.ANNOP.ANNOP'>,2146155597968,algorithms.genetic_algorithm,16,0.2661122661122661,0.2157676348547718,50,tournament_selection,one_point_crossover,0.5,ball_mutation,None,None,0.9,-0.0005579485645042168
<class 'problems.ANNOP.ANNOP'>,2146155597968,algorithms.genetic_algorithm,17,0.2661122661122661,0.2157676348547718,50,tournament_selection,one_point_crossover,0.5,ball_mutation,None,None,0.9,0.015650333172048822
<class 'problems.ANNOP.ANNOP'>,2146155597968,algorithms.genetic_algorithm,18,0.2661122661122661,0.2157676348547718,50,tournament_selection,one_point_crossover,0.5,ball_mutation,None,None,0.9,-0.005399157705948274
<class 'problems.ANNOP.ANNOP'>,2146155597968,algorithms.genetic_algorithm,19,0.2661122661122661,0.2157676348547718,50,tournament_selection,one_point_crossover,0.5,ball_mutation,None,None,0.9,-0.001175188006557075
<class 'problems.ANNOP.ANNOP'>,2146155597968,algorithms.genetic_algorithm,20,0.2661122661122661,0.2157676348547718,50,tournament_selection,one_point_crossover,0.5,ball_mutation,None,None,0.9,0.0020440638977189327
<class 'problems.ANNOP.ANNOP'>,2146155597968,algorithms.genetic_algorithm,21,0.2661122661122661,0.2157676348547718,50,tournament_selection,one_point_crossover,0.5,ball_mutation,None,None,0.9,-0.014708599075775527
<class 'problems.ANNOP.ANNOP'>,2146155597968,algorithms.genetic_algorithm,22,0.2661122661122661,0.2157676348547718,50,tournament_selection,one_point_crossover,0.5,ball_mutation,None,None,0.9,0.004192508542364776
<class 'problems.ANNOP.ANNOP'>,2146155597968,algorithms.genetic_algorithm,23,0.2661122661122661,0.2157676348547718,50,tournament_selection,one_point_crossover,0.5,ball_mutation,None,None,0.9,-0.006022904915972127
<class 'problems.ANNOP.ANNOP'>,2146155597968,algorithms.genetic_algorithm,24,0.2661122661122661,0.2157676348547718,50,tournament_selection,one_point_crossover,0.5,ball_mutation,None,None,0.9,0.006802399970490036
<class 'problems.ANNOP.ANNOP'>,2146155597968,algorithms.genetic_algorithm,25,0.2661122661122661,0.2157676348547718,50,tournament_selection,one_point_crossover,0.5,ball_mutation,None,None,0.9,-0.005583522236286664
<class 'problems.ANNOP.ANNOP'>,2146155597968,algorithms.genetic_algorithm,26,0.2661122661122661,0.2157676348547718,50,tournament_selection,one_point_crossover,0.5,ball_mutation,None,None,0.9,-0.0004809587206034138
<class 'problems.ANNOP.ANNOP'>,2146155597968,algorithms.genetic_algorithm,27,0.2661122661122661,0.2157676348547718,50,tournament_selection,one_point_crossover,0.5,ball_mutation,None,None,0.9,0.010894846979029885
<class 'problems.ANNOP.ANNOP'>,2146155597968,algorithms.genetic_algorithm,28,0.2733887733887734,0.24066390041493776,50,tournament_selection,one_point_crossover,0.5,ball_mutation,None,None,0.9,-0.019021225907961833
<class 'problems.ANNOP.ANNOP'>,2146155597968,algorithms.genetic_algorithm,29,0.2733887733887734,0.24066390041493776,50,tournament_selection,one_point_crossover,0.5,ball_mutation,None,None,0.9,0.006717666391553065
<class 'problems.ANNOP.ANNOP'>,2146155597968,algorithms.genetic_algorithm,30,0.2733887733887734,0.24066390041493776,50,tournament_selection,one_point_crossover,0.5,ball_mutation,None,None,0.9,0.016748620263541472
<class 'problems.ANNOP.ANNOP'>,2146155597968,algorithms.genetic_algorithm,31,0.2733887733887734,0.24066390041493776,50,tournament_selection,one_point_crossover,0.5,ball_mutation,None,None,0.9,-0.008670161343060624
<class 'problems.ANNOP.ANNOP'>,2146155597968,algorithms.genetic_algorithm,32,0.2733887733887734,0.24066390041493776,50,tournament_selection,one_point_crossover,0.5,ball_mutation,None,None,0.9,-0.008266870606045806
<class 'problems.ANNOP.ANNOP'>,2146155597968,algorithms.genetic_algorithm,33,0.2733887733887734,0.24066390041493776,50,tournament_selection,one_point_crossover,0.5,ball_mutation,None,None,0.9,0.007419023531493048
<class 'problems.ANNOP.ANNOP'>,2146155597968,algorithms.genetic_algorithm,34,0.2733887733887734,0.24066390041493776,50,tournament_selection,one_point_crossover,0.5,ball_mutation,None,None,0.9,-0.010244726799619852
<class 'problems.ANNOP.ANNOP'>,2146155597968,algorithms.genetic_algorithm,35,0.2733887733887734,0.24066390041493776,50,tournament_selection,one_point_crossover,0.5,ball_mutation,None,None,0.9,0.010166575663509293
<class 'problems.ANNOP.ANNOP'>,2146155597968,algorithms.genetic_algorithm,36,0.2796257796257796,0.23651452282157676,50,tournament_selection,one_point_crossover,0.5,ball_mutation,None,None,0.9,0.010637333364650899
<class 'problems.ANNOP.ANNOP'>,2146155597968,algorithms.genetic_algorithm,37,0.29002079002079,0.24896265560165975,50,tournament_selection,one_point_crossover,0.5,ball_mutation,None,None,0.9,-0.005335410670611648
<class 'problems.ANNOP.ANNOP'>,2146155597968,algorithms.genetic_algorithm,38,0.3024948024948025,0.2821576763485477,50,tournament_selection,one_point_crossover,0.5,ball_mutation,None,None,0.9,0.005936342903039432
<class 'problems.ANNOP.ANNOP'>,2146155597968,algorithms.genetic_algorithm,39,0.3024948024948025,0.2821576763485477,50,tournament_selection,one_point_crossover,0.5,ball_mutation,None,None,0.9,-0.011777530501096103
<class 'problems.ANNOP.ANNOP'>,2146155597968,algorithms.genetic_algorithm,40,0.3024948024948025,0.2821576763485477,50,tournament_selection,one_point_crossover,0.5,ball_mutation,None,None,0.9,0.004653523129963276
<class 'problems.ANNOP.ANNOP'>,2146155597968,algorithms.genetic_algorithm,41,0.3024948024948025,0.2821576763485477,50,tournament_selection,one_point_crossover,0.5,ball_mutation,None,None,0.9,0.004738113156145328
<class 'problems.ANNOP.ANNOP'>,2146155597968,algorithms.genetic_algorithm,42,0.3024948024948025,0.2821576763485477,50,tournament_selection,one_point_crossover,0.5,ball_mutation,None,None,0.9,-0.01108614860623864
<class 'problems.ANNOP.ANNOP'>,2146155597968,algorithms.genetic_algorithm,43,0.3024948024948025,0.2821576763485477,50,tournament_selection,one_point_crossover,0.5,ball_mutation,None,None,0.9,0.001229956711371348
<class 'problems.ANNOP.ANNOP'>,2146155597968,algorithms.genetic_algorithm,44,0.3024948024948025,0.2821576763485477,50,tournament_selection,one_point_crossover,0.5,ball_mutation,None,None,0.9,0.004300826870000558
<class 'problems.ANNOP.ANNOP'>,2146155597968,algorithms.genetic_algorithm,45,0.3024948024948025,0.2821576763485477,50,tournament_selection,one_point_crossover,0.5,ball_mutation,None,None,0.9,-0.001553128088692693
<class 'problems.ANNOP.ANNOP'>,2146155597968,algorithms.genetic_algorithm,46,0.3024948024948025,0.2821576763485477,50,tournament_selection,one_point_crossover,0.5,ball_mutation,None,None,0.9,0.0131221393019035
<class 'problems.ANNOP.ANNOP'>,2146155597968,algorithms.genetic_algorithm,47,0.3024948024948025,0.2821576763485477,50,tournament_selection,one_point_crossover,0.5,ball_mutation,None,None,0.9,-0.013046169445444199
<class 'problems.ANNOP.ANNOP'>,2146155597968,algorithms.genetic_algorithm,48,0.3024948024948025,0.2821576763485477,50,tournament_selection,one_point_crossover,0.5,ball_mutation,None,None,0.9,0.013794730589519931
<class 'problems.ANNOP.ANNOP'>,2146155597968,algorithms.genetic_algorithm,49,0.3024948024948025,0.2821576763485477,50,tournament_selection,one_point_crossover,0.5,ball_mutation,None,None,0.9,-0.0028285731146492077
<class 'problems.ANNOP.ANNOP'>,2146155597968,algorithms.genetic_algorithm,50,0.3024948024948025,0.2821576763485477,50,tournament_selection,one_point_crossover,0.5,ball_mutation,None,None,0.9,-0.015553788662352401
<class 'problems.ANNOP.ANNOP'>,2146155597968,algorithms.genetic_algorithm,51,0.3024948024948025,0.2821576763485477,50,tournament_selection,one_point_crossover,0.5,ball_mutation,None,None,0.9,0.0048234142731765975
<class 'problems.ANNOP.ANNOP'>,2146155597968,algorithms.genetic_algorithm,52,0.3024948024948025,0.2821576763485477,50,tournament_selection,one_point_crossover,0.5,ball_mutation,None,None,0.9,0.005915754599333585
<class 'problems.ANNOP.ANNOP'>,2146155597968,algorithms.genetic_algorithm,53,0.3024948024948025,0.2821576763485477,50,tournament_selection,one_point_crossover,0.5,ball_mutation,None,None,0.9,0.006778646452591651
<class 'problems.ANNOP.ANNOP'>,2146155597968,algorithms.genetic_algorithm,54,0.3024948024948025,0.2821576763485477,50,tournament_selection,one_point_crossover,0.5,ball_mutation,None,None,0.9,-0.0018553346371758678
<class 'problems.ANNOP.ANNOP'>,2146155597968,algorithms.genetic_algorithm,55,0.3024948024948025,0.2821576763485477,50,tournament_selection,one_point_crossover,0.5,ball_mutation,None,None,0.9,-0.009667113852496655
<class 'problems.ANNOP.ANNOP'>,2146155597968,algorithms.genetic_algorithm,56,0.3024948024948025,0.2821576763485477,50,tournament_selection,one_point_crossover,0.5,ball_mutation,None,None,0.9,0.0040913711865512015
<class 'problems.ANNOP.ANNOP'>,2146155597968,algorithms.genetic_algorithm,57,0.3024948024948025,0.2821576763485477,50,tournament_selection,one_point_crossover,0.5,ball_mutation,None,None,0.9,-0.004075258500305448
<class 'problems.ANNOP.ANNOP'>,2146155597968,algorithms.genetic_algorithm,58,0.3024948024948025,0.2821576763485477,50,tournament_selection,one_point_crossover,0.5,ball_mutation,None,None,0.9,-0.01009672801143776
<class 'problems.ANNOP.ANNOP'>,2146155597968,algorithms.genetic_algorithm,59,0.3024948024948025,0.2821576763485477,50,tournament_selection,one_point_crossover,0.5,ball_mutation,None,None,0.9,0.00323838390436771
<class 'problems.ANNOP.ANNOP'>,2146155597968,algorithms.genetic_algorithm,60,0.3024948024948025,0.2821576763485477,50,tournament_selection,one_point_crossover,0.5,ball_mutation,None,None,0.9,0.0018984515903426938
<class 'problems.ANNOP.ANNOP'>,2146155597968,algorithms.genetic_algorithm,61,0.3024948024948025,0.2821576763485477,50,tournament_selection,one_point_crossover,0.5,ball_mutation,None,None,0.9,0.011873609596534052
<class 'problems.ANNOP.ANNOP'>,2146155597968,algorithms.genetic_algorithm,62,0.3024948024948025,0.2821576763485477,50,tournament_selection,one_point_crossover,0.5,ball_mutation,None,None,0.9,-0.0024701086093217306
<class 'problems.ANNOP.ANNOP'>,2146155597968,algorithms.genetic_algorithm,63,0.3024948024948025,0.2821576763485477,50,tournament_selection,one_point_crossover,0.5,ball_mutation,None,None,0.9,-0.0034110605202416835
<class 'problems.ANNOP.ANNOP'>,2146155597968,algorithms.genetic_algorithm,64,0.3024948024948025,0.2821576763485477,50,tournament_selection,one_point_crossover,0.5,ball_mutation,None,None,0.9,-0.0031896906661454463
<class 'problems.ANNOP.ANNOP'>,2146155597968,algorithms.genetic_algorithm,65,0.3024948024948025,0.2821576763485477,50,tournament_selection,one_point_crossover,0.5,ball_mutation,None,None,0.9,-0.00010715071380835994
<class 'problems.ANNOP.ANNOP'>,2146155597968,algorithms.genetic_algorithm,66,0.3024948024948025,0.2821576763485477,50,tournament_selection,one_point_crossover,0.5,ball_mutation,None,None,0.9,0.0002739121577161885
<class 'problems.ANNOP.ANNOP'>,2146155597968,algorithms.genetic_algorithm,67,0.3024948024948025,0.2821576763485477,50,tournament_selection,one_point_crossover,0.5,ball_mutation,None,None,0.9,-0.0037018067046512768
<class 'problems.ANNOP.ANNOP'>,2146155597968,algorithms.genetic_algorithm,68,0.3024948024948025,0.2821576763485477,50,tournament_selection,one_point_crossover,0.5,ball_mutation,None,None,0.9,0.0029625499970581323
<class 'problems.ANNOP.ANNOP'>,2146155597968,algorithms.genetic_algorithm,69,0.3024948024948025,0.2821576763485477,50,tournament_selection,one_point_crossover,0.5,ball_mutation,None,None,0.9,0.0072018032626270725
<class 'problems.ANNOP.ANNOP'>,2146155597968,algorithms.genetic_algorithm,70,0.3024948024948025,0.2821576763485477,50,tournament_selection,one_point_crossover,0.5,ball_mutation,None,None,0.9,-0.0009794209401857712
<class 'problems.ANNOP.ANNOP'>,2146155597968,algorithms.genetic_algorithm,71,0.3024948024948025,0.2821576763485477,50,tournament_selection,one_point_crossover,0.5,ball_mutation,None,None,0.9,-0.007671007697872934
<class 'problems.ANNOP.ANNOP'>,2146155597968,algorithms.genetic_algorithm,72,0.3024948024948025,0.2821576763485477,50,tournament_selection,one_point_crossover,0.5,ball_mutation,None,None,0.9,0.00967712654432152
<class 'problems.ANNOP.ANNOP'>,2146155597968,algorithms.genetic_algorithm,73,0.3024948024948025,0.2821576763485477,50,tournament_selection,one_point_crossover,0.5,ball_mutation,None,None,0.9,-0.007102689700366184
<class 'problems.ANNOP.ANNOP'>,2146155597968,algorithms.genetic_algorithm,74,0.3024948024948025,0.2821576763485477,50,tournament_selection,one_point_crossover,0.5,ball_mutation,None,None,0.9,0.007115492937417138
<class 'problems.ANNOP.ANNOP'>,2146155597968,algorithms.genetic_algorithm,75,0.3024948024948025,0.2821576763485477,50,tournament_selection,one_point_crossover,0.5,ball_mutation,None,None,0.9,-0.007094186251618957
<class 'problems.ANNOP.ANNOP'>,2146155597968,algorithms.genetic_algorithm,76,0.3024948024948025,0.2821576763485477,50,tournament_selection,one_point_crossover,0.5,ball_mutation,None,None,0.9,0.009261326329348847
<class 'problems.ANNOP.ANNOP'>,2146155597968,algorithms.genetic_algorithm,77,0.3024948024948025,0.2821576763485477,50,tournament_selection,one_point_crossover,0.5,ball_mutation,None,None,0.9,-0.02152055601387161
<class 'problems.ANNOP.ANNOP'>,2146155597968,algorithms.genetic_algorithm,78,0.3024948024948025,0.2821576763485477,50,tournament_selection,one_point_crossover,0.5,ball_mutation,None,None,0.9,0.00237370638590087
<class 'problems.ANNOP.ANNOP'>,2146155597968,algorithms.genetic_algorithm,79,0.3024948024948025,0.2821576763485477,50,tournament_selection,one_point_crossover,0.5,ball_mutation,None,None,0.9,0.010107042282008143
<class 'problems.ANNOP.ANNOP'>,2146155597968,algorithms.genetic_algorithm,80,0.3024948024948025,0.2821576763485477,50,tournament_selection,one_point_crossover,0.5,ball_mutation,None,None,0.9,0.007487717886944807
<class 'problems.ANNOP.ANNOP'>,2146155597968,algorithms.genetic_algorithm,81,0.3024948024948025,0.2821576763485477,50,tournament_selection,one_point_crossover,0.5,ball_mutation,None,None,0.9,-0.001907804091776627
<class 'problems.ANNOP.ANNOP'>,2146155597968,algorithms.genetic_algorithm,82,0.3024948024948025,0.2821576763485477,50,tournament_selection,one_point_crossover,0.5,ball_mutation,None,None,0.9,-0.010530305168654025
<class 'problems.ANNOP.ANNOP'>,2146155597968,algorithms.genetic_algorithm,83,0.3024948024948025,0.2821576763485477,50,tournament_selection,one_point_crossover,0.5,ball_mutation,None,None,0.9,0.0009667360743466913
<class 'problems.ANNOP.ANNOP'>,2146155597968,algorithms.genetic_algorithm,84,0.3024948024948025,0.2821576763485477,50,tournament_selection,one_point_crossover,0.5,ball_mutation,None,None,0.9,0.002804941680425506
<class 'problems.ANNOP.ANNOP'>,2146155597968,algorithms.genetic_algorithm,85,0.3024948024948025,0.2821576763485477,50,tournament_selection,one_point_crossover,0.5,ball_mutation,None,None,0.9,-0.0038461708864105174
<class 'problems.ANNOP.ANNOP'>,2146155597968,algorithms.genetic_algorithm,86,0.3024948024948025,0.2821576763485477,50,tournament_selection,one_point_crossover,0.5,ball_mutation,None,None,0.9,0.006327577425521362
<class 'problems.ANNOP.ANNOP'>,2146155597968,algorithms.genetic_algorithm,87,0.3087318087318087,0.26141078838174275,50,tournament_selection,one_point_crossover,0.5,ball_mutation,None,None,0.9,0.013308193866005909
<class 'problems.ANNOP.ANNOP'>,2146155597968,algorithms.genetic_algorithm,88,0.3087318087318087,0.26141078838174275,50,tournament_selection,one_point_crossover,0.5,ball_mutation,None,None,0.9,-0.007886942648461355
<class 'problems.ANNOP.ANNOP'>,2146155597968,algorithms.genetic_algorithm,89,0.3087318087318087,0.26141078838174275,50,tournament_selection,one_point_crossover,0.5,ball_mutation,None,None,0.9,-0.016403054904244783
<class 'problems.ANNOP.ANNOP'>,2146155597968,algorithms.genetic_algorithm,90,0.3087318087318087,0.26141078838174275,50,tournament_selection,one_point_crossover,0.5,ball_mutation,None,None,0.9,0.005689501632767213
<class 'problems.ANNOP.ANNOP'>,2146155597968,algorithms.genetic_algorithm,91,0.3087318087318087,0.26141078838174275,50,tournament_selection,one_point_crossover,0.5,ball_mutation,None,None,0.9,0.003812518574262569
<class 'problems.ANNOP.ANNOP'>,2146155597968,algorithms.genetic_algorithm,92,0.3087318087318087,0.26141078838174275,50,tournament_selection,one_point_crossover,0.5,ball_mutation,None,None,0.9,-0.0026117010383965855
<class 'problems.ANNOP.ANNOP'>,2146155597968,algorithms.genetic_algorithm,93,0.3087318087318087,0.26141078838174275,50,tournament_selection,one_point_crossover,0.5,ball_mutation,None,None,0.9,0.010957850539505404
<class 'problems.ANNOP.ANNOP'>,2146155597968,algorithms.genetic_algorithm,94,0.3087318087318087,0.26141078838174275,50,tournament_selection,one_point_crossover,0.5,ball_mutation,None,None,0.9,-0.0033371001843948353
<class 'problems.ANNOP.ANNOP'>,2146155597968,algorithms.genetic_algorithm,95,0.3087318087318087,0.26141078838174275,50,tournament_selection,one_point_crossover,0.5,ball_mutation,None,None,0.9,0.00032556741911981407
<class 'problems.ANNOP.ANNOP'>,2146155597968,algorithms.genetic_algorithm,96,0.3087318087318087,0.26141078838174275,50,tournament_selection,one_point_crossover,0.5,ball_mutation,None,None,0.9,-0.012155056713042393
<class 'problems.ANNOP.ANNOP'>,2146155597968,algorithms.genetic_algorithm,97,0.3087318087318087,0.26141078838174275,50,tournament_selection,one_point_crossover,0.5,ball_mutation,None,None,0.9,-0.0017556800586682186
<class 'problems.ANNOP.ANNOP'>,2146155597968,algorithms.genetic_algorithm,98,0.3087318087318087,0.26141078838174275,50,tournament_selection,one_point_crossover,0.5,ball_mutation,None,None,0.9,0.0035588012650418846
<class 'problems.ANNOP.ANNOP'>,2146155597968,algorithms.genetic_algorithm,99,0.3087318087318087,0.26141078838174275,50,tournament_selection,one_point_crossover,0.5,ball_mutation,None,None,0.9,0.0028421675926777676
<class 'problems.ANNOP.ANNOP'>,2146155674216,algorithms.genetic_algorithm,0,0.1787941787941788,0.15352697095435686,50,tournament_selection,one_point_crossover,0.5,ball_mutation,None,None,0.9,0.00349347254203718
<class 'problems.ANNOP.ANNOP'>,2146155674216,algorithms.genetic_algorithm,1,0.18191268191268192,0.23236514522821577,50,tournament_selection,one_point_crossover,0.5,ball_mutation,None,None,0.9,0.00558017942219665
<class 'problems.ANNOP.ANNOP'>,2146155674216,algorithms.genetic_algorithm,2,0.19646569646569648,0.25311203319502074,50,tournament_selection,one_point_crossover,0.5,ball_mutation,None,None,0.9,0.0022647568069222024
<class 'problems.ANNOP.ANNOP'>,2146155674216,algorithms.genetic_algorithm,3,0.25571725571725573,0.2157676348547718,50,tournament_selection,one_point_crossover,0.5,ball_mutation,None,None,0.9,0.010651426707112874
<class 'problems.ANNOP.ANNOP'>,2146155674216,algorithms.genetic_algorithm,4,0.28794178794178793,0.2821576763485477,50,tournament_selection,one_point_crossover,0.5,ball_mutation,None,None,0.9,0.0005942273509102758
<class 'problems.ANNOP.ANNOP'>,2146155674216,algorithms.genetic_algorithm,5,0.28794178794178793,0.2821576763485477,50,tournament_selection,one_point_crossover,0.5,ball_mutation,None,None,0.9,0.001045711633476283
<class 'problems.ANNOP.ANNOP'>,2146155674216,algorithms.genetic_algorithm,6,0.28794178794178793,0.2821576763485477,50,tournament_selection,one_point_crossover,0.5,ball_mutation,None,None,0.9,-0.0031135106909064986
<class 'problems.ANNOP.ANNOP'>,2146155674216,algorithms.genetic_algorithm,7,0.28794178794178793,0.2821576763485477,50,tournament_selection,one_point_crossover,0.5,ball_mutation,None,None,0.9,0.006862397990138137
<class 'problems.ANNOP.ANNOP'>,2146155674216,algorithms.genetic_algorithm,8,0.28794178794178793,0.2821576763485477,50,tournament_selection,one_point_crossover,0.5,ball_mutation,None,None,0.9,0.00036298406349365153
<class 'problems.ANNOP.ANNOP'>,2146155674216,algorithms.genetic_algorithm,9,0.28794178794178793,0.2821576763485477,50,tournament_selection,one_point_crossover,0.5,ball_mutation,None,None,0.9,0.003581918827656967
<class 'problems.ANNOP.ANNOP'>,2146155674216,algorithms.genetic_algorithm,10,0.28794178794178793,0.2821576763485477,50,tournament_selection,one_point_crossover,0.5,ball_mutation,None,None,0.9,0.0017286906125188878
<class 'problems.ANNOP.ANNOP'>,2146155674216,algorithms.genetic_algorithm,11,0.28794178794178793,0.2821576763485477,50,tournament_selection,one_point_crossover,0.5,ball_mutation,None,None,0.9,0.00019759001457853032
<class 'problems.ANNOP.ANNOP'>,2146155674216,algorithms.genetic_algorithm,12,0.28794178794178793,0.2821576763485477,50,tournament_selection,one_point_crossover,0.5,ball_mutation,None,None,0.9,-0.007366022760067641
<class 'problems.ANNOP.ANNOP'>,2146155674216,algorithms.genetic_algorithm,13,0.3004158004158004,0.34439834024896265,50,tournament_selection,one_point_crossover,0.5,ball_mutation,None,None,0.9,-0.009471742670641041
<class 'problems.ANNOP.ANNOP'>,2146155674216,algorithms.genetic_algorithm,14,0.3004158004158004,0.34439834024896265,50,tournament_selection,one_point_crossover,0.5,ball_mutation,None,None,0.9,0.022714759300780936
<class 'problems.ANNOP.ANNOP'>,2146155674216,algorithms.genetic_algorithm,15,0.3004158004158004,0.34439834024896265,50,tournament_selection,one_point_crossover,0.5,ball_mutation,None,None,0.9,-0.01784985885918771
<class 'problems.ANNOP.ANNOP'>,2146155674216,algorithms.genetic_algorithm,16,0.3004158004158004,0.34439834024896265,50,tournament_selection,one_point_crossover,0.5,ball_mutation,None,None,0.9,0.002019011487501478
<class 'problems.ANNOP.ANNOP'>,2146155674216,algorithms.genetic_algorithm,17,0.3004158004158004,0.34439834024896265,50,tournament_selection,one_point_crossover,0.5,ball_mutation,None,None,0.9,-0.0031328879513083177
<class 'problems.ANNOP.ANNOP'>,2146155674216,algorithms.genetic_algorithm,18,0.3004158004158004,0.34439834024896265,50,tournament_selection,one_point_crossover,0.5,ball_mutation,None,None,0.9,0.02641060503707828
<class 'problems.ANNOP.ANNOP'>,2146155674216,algorithms.genetic_algorithm,19,0.3004158004158004,0.34439834024896265,50,tournament_selection,one_point_crossover,0.5,ball_mutation,None,None,0.9,-0.016082690389164628
<class 'problems.ANNOP.ANNOP'>,2146155674216,algorithms.genetic_algorithm,20,0.3004158004158004,0.34439834024896265,50,tournament_selection,one_point_crossover,0.5,ball_mutation,None,None,0.9,-0.008125558009949907
<class 'problems.ANNOP.ANNOP'>,2146155674216,algorithms.genetic_algorithm,21,0.3004158004158004,0.34439834024896265,50,tournament_selection,one_point_crossover,0.5,ball_mutation,None,None,0.9,0.004686672883811575
<class 'problems.ANNOP.ANNOP'>,2146155674216,algorithms.genetic_algorithm,22,0.3004158004158004,0.34439834024896265,50,tournament_selection,one_point_crossover,0.5,ball_mutation,None,None,0.9,-0.01854488402567417
<class 'problems.ANNOP.ANNOP'>,2146155674216,algorithms.genetic_algorithm,23,0.3004158004158004,0.34439834024896265,50,tournament_selection,one_point_crossover,0.5,ball_mutation,None,None,0.9,0.0005061869631818663
<class 'problems.ANNOP.ANNOP'>,2146155674216,algorithms.genetic_algorithm,24,0.3004158004158004,0.34439834024896265,50,tournament_selection,one_point_crossover,0.5,ball_mutation,None,None,0.9,0.030290286627212643
<class 'problems.ANNOP.ANNOP'>,2146155674216,algorithms.genetic_algorithm,25,0.3004158004158004,0.34439834024896265,50,tournament_selection,one_point_crossover,0.5,ball_mutation,None,None,0.9,-0.012421235765215102
<class 'problems.ANNOP.ANNOP'>,2146155674216,algorithms.genetic_algorithm,26,0.3004158004158004,0.34439834024896265,50,tournament_selection,one_point_crossover,0.5,ball_mutation,None,None,0.9,0.015538515484137011
<class 'problems.ANNOP.ANNOP'>,2146155674216,algorithms.genetic_algorithm,27,0.3004158004158004,0.34439834024896265,50,tournament_selection,one_point_crossover,0.5,ball_mutation,None,None,0.9,0.015154746383434115
<class 'problems.ANNOP.ANNOP'>,2146155674216,algorithms.genetic_algorithm,28,0.3004158004158004,0.34439834024896265,50,tournament_selection,one_point_crossover,0.5,ball_mutation,None,None,0.9,0.00891110284712425
<class 'problems.ANNOP.ANNOP'>,2146155674216,algorithms.genetic_algorithm,29,0.3004158004158004,0.34439834024896265,50,tournament_selection,one_point_crossover,0.5,ball_mutation,None,None,0.9,-4.146180259663457e-05
<class 'problems.ANNOP.ANNOP'>,2146155674216,algorithms.genetic_algorithm,30,0.3004158004158004,0.34439834024896265,50,tournament_selection,one_point_crossover,0.5,ball_mutation,None,None,0.9,-0.011673974970879714
<class 'problems.ANNOP.ANNOP'>,2146155674216,algorithms.genetic_algorithm,31,0.3004158004158004,0.34439834024896265,50,tournament_selection,one_point_crossover,0.5,ball_mutation,None,None,0.9,0.004558281599889885
<class 'problems.ANNOP.ANNOP'>,2146155674216,algorithms.genetic_algorithm,32,0.3004158004158004,0.34439834024896265,50,tournament_selection,one_point_crossover,0.5,ball_mutation,None,None,0.9,0.010320863758601695
<class 'problems.ANNOP.ANNOP'>,2146155674216,algorithms.genetic_algorithm,33,0.3004158004158004,0.34439834024896265,50,tournament_selection,one_point_crossover,0.5,ball_mutation,None,None,0.9,-0.00018241755657676106
<class 'problems.ANNOP.ANNOP'>,2146155674216,algorithms.genetic_algorithm,34,0.3004158004158004,0.34439834024896265,50,tournament_selection,one_point_crossover,0.5,ball_mutation,None,None,0.9,-0.007559955389359246
<class 'problems.ANNOP.ANNOP'>,2146155674216,algorithms.genetic_algorithm,35,0.3004158004158004,0.34439834024896265,50,tournament_selection,one_point_crossover,0.5,ball_mutation,None,None,0.9,-0.0203253058363341
<class 'problems.ANNOP.ANNOP'>,2146155674216,algorithms.genetic_algorithm,36,0.3004158004158004,0.34439834024896265,50,tournament_selection,one_point_crossover,0.5,ball_mutation,None,None,0.9,-0.014038789982885297
<class 'problems.ANNOP.ANNOP'>,2146155674216,algorithms.genetic_algorithm,37,0.3004158004158004,0.34439834024896265,50,tournament_selection,one_point_crossover,0.5,ball_mutation,None,None,0.9,0.02161739291312484
<class 'problems.ANNOP.ANNOP'>,2146155674216,algorithms.genetic_algorithm,38,0.3004158004158004,0.34439834024896265,50,tournament_selection,one_point_crossover,0.5,ball_mutation,None,None,0.9,-0.03542846537928957
<class 'problems.ANNOP.ANNOP'>,2146155674216,algorithms.genetic_algorithm,39,0.3004158004158004,0.34439834024896265,50,tournament_selection,one_point_crossover,0.5,ball_mutation,None,None,0.9,0.008884222709818305
<class 'problems.ANNOP.ANNOP'>,2146155674216,algorithms.genetic_algorithm,40,0.3004158004158004,0.34439834024896265,50,tournament_selection,one_point_crossover,0.5,ball_mutation,None,None,0.9,-0.0005085909956057816
<class 'problems.ANNOP.ANNOP'>,2146155674216,algorithms.genetic_algorithm,41,0.3004158004158004,0.34439834024896265,50,tournament_selection,one_point_crossover,0.5,ball_mutation,None,None,0.9,0.012154640758988242
<class 'problems.ANNOP.ANNOP'>,2146155674216,algorithms.genetic_algorithm,42,0.3004158004158004,0.34439834024896265,50,tournament_selection,one_point_crossover,0.5,ball_mutation,None,None,0.9,0.00458196248989301
<class 'problems.ANNOP.ANNOP'>,2146155674216,algorithms.genetic_algorithm,43,0.3004158004158004,0.34439834024896265,50,tournament_selection,one_point_crossover,0.5,ball_mutation,None,None,0.9,-0.009668188253948093
<class 'problems.ANNOP.ANNOP'>,2146155674216,algorithms.genetic_algorithm,44,0.3004158004158004,0.34439834024896265,50,tournament_selection,one_point_crossover,0.5,ball_mutation,None,None,0.9,-0.001773247294930079
<class 'problems.ANNOP.ANNOP'>,2146155674216,algorithms.genetic_algorithm,45,0.3004158004158004,0.34439834024896265,50,tournament_selection,one_point_crossover,0.5,ball_mutation,None,None,0.9,0.0015745625561277288
<class 'problems.ANNOP.ANNOP'>,2146155674216,algorithms.genetic_algorithm,46,0.3004158004158004,0.34439834024896265,50,tournament_selection,one_point_crossover,0.5,ball_mutation,None,None,0.9,0.01288119694590318
<class 'problems.ANNOP.ANNOP'>,2146155674216,algorithms.genetic_algorithm,47,0.3004158004158004,0.34439834024896265,50,tournament_selection,one_point_crossover,0.5,ball_mutation,None,None,0.9,0.00309363298379034
<class 'problems.ANNOP.ANNOP'>,2146155674216,algorithms.genetic_algorithm,48,0.3097713097713098,0.3651452282157676,50,tournament_selection,one_point_crossover,0.5,ball_mutation,None,None,0.9,-0.0005140866066239425
<class 'problems.ANNOP.ANNOP'>,2146155674216,algorithms.genetic_algorithm,49,0.3097713097713098,0.3651452282157676,50,tournament_selection,one_point_crossover,0.5,ball_mutation,None,None,0.9,-0.0033706943422374402
<class 'problems.ANNOP.ANNOP'>,2146155674216,algorithms.genetic_algorithm,50,0.3097713097713098,0.3651452282157676,50,tournament_selection,one_point_crossover,0.5,ball_mutation,None,None,0.9,0.010667328643090251
<class 'problems.ANNOP.ANNOP'>,2146155674216,algorithms.genetic_algorithm,51,0.3097713097713098,0.3651452282157676,50,tournament_selection,one_point_crossover,0.5,ball_mutation,None,None,0.9,-0.03317420060638145
<class 'problems.ANNOP.ANNOP'>,2146155674216,algorithms.genetic_algorithm,52,0.3097713097713098,0.3651452282157676,50,tournament_selection,one_point_crossover,0.5,ball_mutation,None,None,0.9,0.034236480313002256
<class 'problems.ANNOP.ANNOP'>,2146155674216,algorithms.genetic_algorithm,53,0.3097713097713098,0.3651452282157676,50,tournament_selection,one_point_crossover,0.5,ball_mutation,None,None,0.9,-6.148312458681415e-05
<class 'problems.ANNOP.ANNOP'>,2146155674216,algorithms.genetic_algorithm,54,0.3284823284823285,0.35684647302904565,50,tournament_selection,one_point_crossover,0.5,ball_mutation,None,None,0.9,-0.015725032604985326
<class 'problems.ANNOP.ANNOP'>,2146155674216,algorithms.genetic_algorithm,55,0.3284823284823285,0.35684647302904565,50,tournament_selection,one_point_crossover,0.5,ball_mutation,None,None,0.9,0.00962120793830075
<class 'problems.ANNOP.ANNOP'>,2146155674216,algorithms.genetic_algorithm,56,0.3284823284823285,0.35684647302904565,50,tournament_selection,one_point_crossover,0.5,ball_mutation,None,None,0.9,0.010774347760268116
<class 'problems.ANNOP.ANNOP'>,2146155674216,algorithms.genetic_algorithm,57,0.3284823284823285,0.35684647302904565,50,tournament_selection,one_point_crossover,0.5,ball_mutation,None,None,0.9,-0.001455109411525879
<class 'problems.ANNOP.ANNOP'>,2146155674216,algorithms.genetic_algorithm,58,0.3284823284823285,0.35684647302904565,50,tournament_selection,one_point_crossover,0.5,ball_mutation,None,None,0.9,0.0013427968898792608
<class 'problems.ANNOP.ANNOP'>,2146155674216,algorithms.genetic_algorithm,59,0.3284823284823285,0.35684647302904565,50,tournament_selection,one_point_crossover,0.5,ball_mutation,None,None,0.9,-0.0066248689192417165
<class 'problems.ANNOP.ANNOP'>,2146155674216,algorithms.genetic_algorithm,60,0.3284823284823285,0.35684647302904565,50,tournament_selection,one_point_crossover,0.5,ball_mutation,None,None,0.9,0.0002717350283793635
<class 'problems.ANNOP.ANNOP'>,2146155674216,algorithms.genetic_algorithm,61,0.3284823284823285,0.35684647302904565,50,tournament_selection,one_point_crossover,0.5,ball_mutation,None,None,0.9,-0.007158313994024432
<class 'problems.ANNOP.ANNOP'>,2146155674216,algorithms.genetic_algorithm,62,0.3284823284823285,0.35684647302904565,50,tournament_selection,one_point_crossover,0.5,ball_mutation,None,None,0.9,0.005029180127603575
<class 'problems.ANNOP.ANNOP'>,2146155674216,algorithms.genetic_algorithm,63,0.3284823284823285,0.35684647302904565,50,tournament_selection,one_point_crossover,0.5,ball_mutation,None,None,0.9,0.00396371779724787
<class 'problems.ANNOP.ANNOP'>,2146155674216,algorithms.genetic_algorithm,64,0.3284823284823285,0.35684647302904565,50,tournament_selection,one_point_crossover,0.5,ball_mutation,None,None,0.9,0.006737165594417727
<class 'problems.ANNOP.ANNOP'>,2146155674216,algorithms.genetic_algorithm,65,0.3284823284823285,0.35684647302904565,50,tournament_selection,one_point_crossover,0.5,ball_mutation,None,None,0.9,-0.0025841297442019684
<class 'problems.ANNOP.ANNOP'>,2146155674216,algorithms.genetic_algorithm,66,0.3284823284823285,0.35684647302904565,50,tournament_selection,one_point_crossover,0.5,ball_mutation,None,None,0.9,-0.009273591375834986
<class 'problems.ANNOP.ANNOP'>,2146155674216,algorithms.genetic_algorithm,67,0.3284823284823285,0.35684647302904565,50,tournament_selection,one_point_crossover,0.5,ball_mutation,None,None,0.9,-0.006317965968522937
<class 'problems.ANNOP.ANNOP'>,2146155674216,algorithms.genetic_algorithm,68,0.3284823284823285,0.35684647302904565,50,tournament_selection,one_point_crossover,0.5,ball_mutation,None,None,0.9,0.003960686533498292
<class 'problems.ANNOP.ANNOP'>,2146155674216,algorithms.genetic_algorithm,69,0.3284823284823285,0.35684647302904565,50,tournament_selection,one_point_crossover,0.5,ball_mutation,None,None,0.9,0.00471301766917033
<class 'problems.ANNOP.ANNOP'>,2146155674216,algorithms.genetic_algorithm,70,0.3284823284823285,0.35684647302904565,50,tournament_selection,one_point_crossover,0.5,ball_mutation,None,None,0.9,-0.00017874075937920897
<class 'problems.ANNOP.ANNOP'>,2146155674216,algorithms.genetic_algorithm,71,0.3284823284823285,0.35684647302904565,50,tournament_selection,one_point_crossover,0.5,ball_mutation,None,None,0.9,0.010864574312730732
<class 'problems.ANNOP.ANNOP'>,2146155674216,algorithms.genetic_algorithm,72,0.3284823284823285,0.35684647302904565,50,tournament_selection,one_point_crossover,0.5,ball_mutation,None,None,0.9,-0.015097888567893097
<class 'problems.ANNOP.ANNOP'>,2146155674216,algorithms.genetic_algorithm,73,0.3284823284823285,0.35684647302904565,50,tournament_selection,one_point_crossover,0.5,ball_mutation,None,None,0.9,-0.012999358535649735
<class 'problems.ANNOP.ANNOP'>,2146155674216,algorithms.genetic_algorithm,74,0.3284823284823285,0.35684647302904565,50,tournament_selection,one_point_crossover,0.5,ball_mutation,None,None,0.9,-0.021235806028354336
<class 'problems.ANNOP.ANNOP'>,2146155674216,algorithms.genetic_algorithm,75,0.3284823284823285,0.35684647302904565,50,tournament_selection,one_point_crossover,0.5,ball_mutation,None,None,0.9,-0.0038221916225182756
<class 'problems.ANNOP.ANNOP'>,2146155674216,algorithms.genetic_algorithm,76,0.33264033264033266,0.33195020746887965,50,tournament_selection,one_point_crossover,0.5,ball_mutation,None,None,0.9,0.019391811162350406
<class 'problems.ANNOP.ANNOP'>,2146155674216,algorithms.genetic_algorithm,77,0.33264033264033266,0.33195020746887965,50,tournament_selection,one_point_crossover,0.5,ball_mutation,None,None,0.9,-0.008098019050625037
<class 'problems.ANNOP.ANNOP'>,2146155674216,algorithms.genetic_algorithm,78,0.33264033264033266,0.33195020746887965,50,tournament_selection,one_point_crossover,0.5,ball_mutation,None,None,0.9,0.020094351934351093
<class 'problems.ANNOP.ANNOP'>,2146155674216,algorithms.genetic_algorithm,79,0.33264033264033266,0.33195020746887965,50,tournament_selection,one_point_crossover,0.5,ball_mutation,None,None,0.9,-0.003597801900892074
<class 'problems.ANNOP.ANNOP'>,2146155674216,algorithms.genetic_algorithm,80,0.34511434511434513,0.35269709543568467,50,tournament_selection,one_point_crossover,0.5,ball_mutation,None,None,0.9,0.005322749639589765
<class 'problems.ANNOP.ANNOP'>,2146155674216,algorithms.genetic_algorithm,81,0.34511434511434513,0.35269709543568467,50,tournament_selection,one_point_crossover,0.5,ball_mutation,None,None,0.9,-0.007653020280061568
<class 'problems.ANNOP.ANNOP'>,2146155674216,algorithms.genetic_algorithm,82,0.3711018711018711,0.4024896265560166,50,tournament_selection,one_point_crossover,0.5,ball_mutation,None,None,0.9,0.042163799440805214
<class 'problems.ANNOP.ANNOP'>,2146155674216,algorithms.genetic_algorithm,83,0.3711018711018711,0.4024896265560166,50,tournament_selection,one_point_crossover,0.5,ball_mutation,None,None,0.9,-0.03404155141977376
<class 'problems.ANNOP.ANNOP'>,2146155674216,algorithms.genetic_algorithm,84,0.3711018711018711,0.4024896265560166,50,tournament_selection,one_point_crossover,0.5,ball_mutation,None,None,0.9,-0.00011817555117342449
<class 'problems.ANNOP.ANNOP'>,2146155674216,algorithms.genetic_algorithm,85,0.3711018711018711,0.4024896265560166,50,tournament_selection,one_point_crossover,0.5,ball_mutation,None,None,0.9,0.011886146002328915
<class 'problems.ANNOP.ANNOP'>,2146155674216,algorithms.genetic_algorithm,86,0.3711018711018711,0.4024896265560166,50,tournament_selection,one_point_crossover,0.5,ball_mutation,None,None,0.9,-0.004700746666803271
<class 'problems.ANNOP.ANNOP'>,2146155674216,algorithms.genetic_algorithm,87,0.3711018711018711,0.4024896265560166,50,tournament_selection,one_point_crossover,0.5,ball_mutation,None,None,0.9,-0.008038612006597445
<class 'problems.ANNOP.ANNOP'>,2146155674216,algorithms.genetic_algorithm,88,0.3711018711018711,0.4024896265560166,50,tournament_selection,one_point_crossover,0.5,ball_mutation,None,None,0.9,-0.004041972044855506
<class 'problems.ANNOP.ANNOP'>,2146155674216,algorithms.genetic_algorithm,89,0.3711018711018711,0.4024896265560166,50,tournament_selection,one_point_crossover,0.5,ball_mutation,None,None,0.9,0.011001210893112866
<class 'problems.ANNOP.ANNOP'>,2146155674216,algorithms.genetic_algorithm,90,0.3711018711018711,0.4024896265560166,50,tournament_selection,one_point_crossover,0.5,ball_mutation,None,None,0.9,-0.0028735434998417436
<class 'problems.ANNOP.ANNOP'>,2146155674216,algorithms.genetic_algorithm,91,0.3711018711018711,0.4024896265560166,50,tournament_selection,one_point_crossover,0.5,ball_mutation,None,None,0.9,-0.005109868238555901
<class 'problems.ANNOP.ANNOP'>,2146155674216,algorithms.genetic_algorithm,92,0.3711018711018711,0.4024896265560166,50,tournament_selection,one_point_crossover,0.5,ball_mutation,None,None,0.9,0.0056499341794362945
<class 'problems.ANNOP.ANNOP'>,2146155674216,algorithms.genetic_algorithm,93,0.3711018711018711,0.4024896265560166,50,tournament_selection,one_point_crossover,0.5,ball_mutation,None,None,0.9,0.003783211983353796
<class 'problems.ANNOP.ANNOP'>,2146155674216,algorithms.genetic_algorithm,94,0.3711018711018711,0.4024896265560166,50,tournament_selection,one_point_crossover,0.5,ball_mutation,None,None,0.9,-0.020868469759325187
<class 'problems.ANNOP.ANNOP'>,2146155674216,algorithms.genetic_algorithm,95,0.3711018711018711,0.4024896265560166,50,tournament_selection,one_point_crossover,0.5,ball_mutation,None,None,0.9,0.02506129423795235
<class 'problems.ANNOP.ANNOP'>,2146155674216,algorithms.genetic_algorithm,96,0.3711018711018711,0.4024896265560166,50,tournament_selection,one_point_crossover,0.5,ball_mutation,None,None,0.9,-0.00506681543384202
<class 'problems.ANNOP.ANNOP'>,2146155674216,algorithms.genetic_algorithm,97,0.3711018711018711,0.4024896265560166,50,tournament_selection,one_point_crossover,0.5,ball_mutation,None,None,0.9,-0.00833985026819753
<class 'problems.ANNOP.ANNOP'>,2146155674216,algorithms.genetic_algorithm,98,0.3711018711018711,0.4024896265560166,50,tournament_selection,one_point_crossover,0.5,ball_mutation,None,None,0.9,0.006821351098209319
<class 'problems.ANNOP.ANNOP'>,2146155674216,algorithms.genetic_algorithm,99,0.3711018711018711,0.4024896265560166,50,tournament_selection,one_point_crossover,0.5,ball_mutation,None,None,0.9,-0.014634982765303353
