Geno_Sta;Pheno_Sta
-1.719634417;-0.167170262
0.86343058;-1.744022621
-1.726611997;0.08033444
0.391029468;0.008285286
0.897154079;0.440534892
-1.709714862;0.842333534
-1.723383596;0.741781917
0.736594966;0.39581004
0.661630193;0.290681716
-1.706046827;0.767882742
0.41175689;1.092103932
0.37014782;0.497766389
0.610719887;0.973517369
-1.697459378;0.733308212
0.427146677;0.828603412
0.453572488;0.389466089
0.575287799;-0.206230872
0.597144031;0.245413097
-1.993505397;-1.89467876
0.572727678;0.480909606
-1.750447593;0.404736885
0.634806213;0.539138009
0.913988787;0.53338314
0.997099943;0.510907429
0.935523145;-1.608697092
0.794418538;1.063646782
0.999578261;0.449552364
1.117550913;0.746086741
0.804373808;0.363455892
1.001728191;-1.626093111
-1.684662332;0.560979325
-1.676214435;1.099988556
0.566059818;0.881801969
-0.077025279;-1.897250326
0.088465503;0.639508371
0.295753257;0.720393741
0.308196845;0.896257114
0.323716211;0.660624663
-0.043462157;0.724245425
-0.056898579;0.422409318
0.128084568;-1.68785147
0.353765669;-1.695631873
0.615592176;0.853435447
0.698503739;1.0282566
-1.758613893;0.872603241
-0.054739158;-1.663255068
-0.148452121;0.160132275
0.337687568;0.181293882
0.625461819;-1.670894997
-1.746323078;0.392275553
0.166786754;-1.724066365
0.186989407;-0.340586682
0.315194204;-0.265773379
0.257064008;0.145722445
0.348395735;-1.894191635
0.284756716;0.155328998
0.520381641;0.12447021
0.608246685;0.26054795
0.871142839;0.343744331
0.89038508;-1.637548473
-1.706043539;-1.628571783
0.490680151;1.204663741
0.591618841;0.906543377
-1.72120177;0.972112637
0.530046233;-1.663422729
0.443373444;1.032969249
0.679426249;0.278492268
-1.692971206;0.280622023
0.93955231;-0.034581694
-1.688653345;-1.654899178
1.107823834;0.688220848
-1.709267729;-1.541056985
0.450771034;-1.660808115
0.287036922;1.433181904
0.517663343;0.690984998
0.708424132;1.456201382
0.574252603;0.577790794
0.439327779;0.512719987
0.417317106;-1.663844149
0.31957023;0.788772465
0.516776289;1.648332457
0.544715926;-1.887222806
0.494755577;2.146649776
0.481528271;1.207427891
0.534167716;0.902147925
0.458292751;0.794255451
0.407942878;0.726964261
0.301712473;-1.632477844
0.650139985;1.457152974
0.368411486;1.061652969
0.220364815;1.134744342
0.441558197;-1.629496188
0.528685677;1.17389558
-1.729713237;-1.583851463
0.622555563;-1.58735423
0.677954803;-1.494170659
0.775593326;-1.453940949
0.738822268;1.562507868
-1.968333366;2.074555309
0.714735736;0.843602324
